﻿{"state": {
    "ACT": {
        "region": ["ACT - Canberra"]
    },

    "NSW": {
        "region": ["NSW - Blue Mountains",
            "NSW - Central Coast",
            "NSW - Central West",
            "NSW - Hunter",
            "NSW - Mid North Coast",
            "NSW - New England",
            "NSW - North Coast",
            "NSW - Riverina",
            "NSW - South Coast",
            "NSW - Sydney CBD",
            "NSW - Sydney Metro"]
    },

    "QLD": {
        "region": ["QLD - Brisbane Metro",
            "QLD - Far North Coast",
            "QLD - Gold Coast",
            "QLD - Hervey Bay",
            "QLD - Mackay",
            "QLD - Northern Rivers",
            "QLD - Rockhampton",
            "QLD - Sunshine Coast",
            "QLD - Toowoomba"]
    },

    "SA": {
        "region": ["SA - Adelaide Metro",
            "SA - Mildura region",
            "SA - Northern region",
            "SA - South Eastern region"]
    },

    "TAS": {
        "region": ["TAS - Hobart Metro"]
    },

    "VIC": {
        "region": ["VIC - Eastern region",
            "VIC - Melbourne CBD",
            "VIC - Melbourne Metro",
            "VIC - Northern region",
            "VIC - Southern region",
            "VIC - Western region",
            "VIC Southern region"]
    },

    "WA": {
        "region": ["WA - Perth Metro",
            "WA - Southern region"]
    }
}}
