armstrong_2_ssd_id,ssd_group,armstrong_2_salespersons_id,salespersons,armstrong_2_customers_id,armstrong_1_customers_id,armstrong_1_distributors_id,armstrong_2_distributors_id,armstrong_1_wholesalers_id,armstrong_2_wholesalers_id,wholesalers_name,armstrong_2_call_records_id,sku_number,sku_name,qty_cases,qty_pcs,free_qty_cases,free_qty_pcs,total_price,invoice_number,method,ssd_month,ssd_year,ssd_date,date_created,delivery_date,remarks,new_sku,status,business_type,country_id,error_column
,0,SALA00000002TE,,OPDA00000050TE,MEOMEO,15020698,DISA00000003BHR,,,,,20075933,KNORR MASH GRAN WTH SEASNING&MILK 1X7KG,120,0,0,,1613,,,1,2017,2017-05-01 00:00:00,2017-01-12 16:00:28,2017-01-12 16:00:28,,,1,,88,duplicate data,
,0,SALA00000002TE,,OPDA00000045TE,MINH222,15071064,DISA00000001BHR,,,,,32021564,LIPTON ENVELOPE ENGLSH BREAKF 16X(20X2G),1,0,0,,12.695,,,1,2017,2017-05-01 00:00:00,2017-01-12 16:00:30,2017-01-12 16:00:30,,,1,,88,duplicate data,
ssd001,0,SALA00000002TE,,opda00000321,,,,,,,,21108729,CARTE D'OR DSRT CHOCOLATE TOPPING 6X1KG,1,0,0,,12.5,,,1,2017,2017-05-01 00:00:00,2017-01-12 16:00:31,2017-01-12 16:00:31,,,1,,88,armstrong_2_customers_id not exist,