armstrong_2_ssd_id,ssd_group,armstrong_2_salespersons_id,salespersons,armstrong_2_customers_id,armstrong_1_customers_id,armstrong_1_distributors_id,armstrong_2_distributors_id,armstrong_1_wholesalers_id,armstrong_2_wholesalers_id,wholesalers_name,armstrong_2_call_records_id,sku_number,sku_name,qty_cases,qty_pcs,free_qty_cases,free_qty_pcs,total_price,invoice_number,method,ssd_month,ssd_year,ssd_date,date_created,delivery_date,remarks,new_sku,status,business_type,country_id,error_column
,0,SALA00000002TE,,OPDA00000001TE,AAAAAAAABVBVXBVCXB9,,,,,,,20075933,KNORR MASH GRAN WTH SEASNING&MILK 1X7KG,120,1,0,,1613,,,3,2017,2017-05-01 00:00:00,2017-01-16 12:08:47,2017-01-16 12:08:47,,,1,,88,duplicate data,
,0,SALA00000002TE,,OPDA00000002TE,,,,,,,,32021564,LIPTON ENVELOPE ENGLSH BREAKF 16X(20X2G),2,1,0,,12.695,,,3,2017,2017-05-01 00:00:00,2017-01-16 12:08:48,2017-01-16 12:08:48,,,1,,88,duplicate data,
meo001,0,SALA00000002TE,,OPDA00000044TE,,,,,,,,21108729,CARTE D'OR DSRT CHOCOLATE TOPPING 6X1KG,3,0,0,,12.5,,,3,2017,2017-05-01 00:00:00,2017-01-16 12:08:48,2017-01-16 12:08:48,,,1,,88,duplicate data,