"Date","Customer","Whosaler","Table","Id","SQL","Column effect","Status"
"2017-06-24 15:50:21","OPDA8496TW","WHSA0562TW","pantry_check_details","","","","No Data"
"2017-06-24 15:50:21","OPDA8161TW","WHSA0227TW","pantry_check_details","","","","No Data"
"2017-06-24 15:50:21","OPDA8079TW","WHSA0145TW","pantry_check_details","","","","No Data"
"2017-06-24 15:50:21","OPDA9137TW","WHSA1203TW","pantry_check_details","","","","No Data"
"2017-06-24 15:50:21","OPDA8276TW","WHSA0342TW","pantry_check_details","","","","No Data"
"2017-06-24 15:50:21","OPDA8026TW","WHSA0092TW","pantry_check_details","","","","No Data"
"2017-06-24 15:50:21","OPDA8915TW","WHSA0981TW","pantry_check_details","","","","No Data"
"2017-06-24 15:50:21","OPDA9089TW","WHSA1155TW","pantry_check_details","","","","No Data"
"2017-06-24 15:50:21","OPDA8165TW","WHSA0231TW","pantry_check_details","","","","No Data"
"2017-06-24 15:50:21","OPDA8685TW","WHSA0751TW","pantry_check_details","","","","No Data"
"2017-06-24 15:50:21","OPDA8873TW","WHSA0939TW","pantry_check_details","","","","No Data"
"2017-06-24 15:50:21","OPDA7948TW","WHSA0014TW","pantry_check_details","","","","No Data"
"2017-06-24 15:50:21","OPDA8784TW","WHSA0850TW","pantry_check_details","","","","No Data"
"2017-06-24 15:50:21","OPDA8809TW","WHSA0875TW","pantry_check_details","","","","No Data"
"2017-06-24 15:50:21","OPDA8812TW","WHSA0878TW","pantry_check_details","","","","No Data"
"2017-06-24 15:50:21","OPDA8470TW","WHSA0536TW","pantry_check_details","","","","No Data"
"2017-06-24 15:50:21","OPDA8105TW","WHSA0171TW","pantry_check_details","","","","No Data"
"2017-06-24 15:50:21","OPDA7993TW","WHSA0059TW","pantry_check_details","","","","No Data"
"2017-06-24 15:50:21","OPDA8761TW","WHSA0827TW","pantry_check_details","","","","No Data"
"2017-06-24 15:50:21","OPDA7951TW","WHSA0017TW","pantry_check_details","","","","No Data"
"2017-06-24 15:50:21","OPDA9084TW","WHSA1150TW","pantry_check_details","","","","No Data"
"2017-06-24 15:50:21","OPDA8718TW","WHSA0784TW","pantry_check_details","","","","No Data"
"2017-06-24 15:50:21","OPDA9182TW","WHSA1248TW","pantry_check_details","","","","No Data"
"2017-06-24 15:50:21","OPDA7947TW","WHSA0013TW","pantry_check_details","","","","No Data"
"2017-06-24 15:50:21","OPDA8717TW","WHSA0783TW","pantry_check_details","","","","No Data"
"2017-06-24 15:50:21","OPDA8729TW","WHSA0795TW","pantry_check_details","","","","No Data"
"2017-06-24 15:50:21","OPDA8532TW","WHSA0598TW","pantry_check_details","","","","No Data"
"2017-06-24 15:50:21","OPDA8934TW","WHSA1000TW","pantry_check_details","","","","No Data"
"2017-06-24 15:50:21","OPDA8947TW","WHSA1013TW","pantry_check_details","","","","No Data"
"2017-06-24 15:50:21","OPDA8324TW","WHSA0390TW","pantry_check_details","","","","No Data"
"2017-06-24 15:50:21","OPDA7987TW","WHSA0053TW","pantry_check_details","","","","No Data"
"2017-06-24 15:50:21","OPDA8194TW","WHSA0260TW","pantry_check_details","","","","No Data"
"2017-06-24 15:50:21","OPDA8382TW","WHSA0448TW","pantry_check_details","","","","No Data"
"2017-06-24 15:50:21","OPDA8752TW","WHSA0818TW","pantry_check_details","","","","No Data"
"2017-06-24 15:50:21","OPDA8591TW","WHSA0657TW","pantry_check_details","","","","No Data"
"2017-06-24 15:50:21","OPDA8826TW","WHSA0892TW","pantry_check_details","","","","No Data"
"2017-06-24 15:50:21","OPDA8164TW","WHSA0230TW","pantry_check_details","","","","No Data"
"2017-06-24 15:50:21","OPDA8209TW","WHSA0275TW","pantry_check_details","","","","No Data"
"2017-06-24 15:50:21","OPDA8574TW","WHSA0640TW","pantry_check_details","","","","No Data"
"2017-06-24 15:50:21","OPDA9175TW","WHSA1241TW","pantry_check_details","","","","No Data"
"2017-06-24 15:50:21","OPDA8336TW","WHSA0402TW","pantry_check_details","","","","No Data"
"2017-06-24 15:50:21","OPDA8890TW","WHSA0956TW","pantry_check_details","","","","No Data"
"2017-06-24 15:50:21","OPDA9099TW","WHSA1165TW","pantry_check_details","","","","No Data"
"2017-06-24 15:50:21","OPDA8084TW","WHSA0150TW","pantry_check_details","","","","No Data"
"2017-06-24 15:50:21","OPDA8440TW","WHSA0506TW","pantry_check_details","","","","No Data"
"2017-06-24 15:50:21","OPDA9000TW","WHSA1066TW","pantry_check_details","","","","No Data"
"2017-06-24 15:50:21","OPDA8620TW","WHSA0686TW","pantry_check_details","","","","No Data"
"2017-06-24 15:50:21","OPDA8835TW","WHSA0901TW","pantry_check_details","","","","No Data"
"2017-06-24 15:50:21","OPDA7976TW","WHSA0042TW","pantry_check_details","","","","No Data"
"2017-06-24 15:50:21","OPDA8192TW","WHSA0258TW","pantry_check_details","","","","No Data"
"2017-06-24 15:50:21","OPDA8296TW","WHSA0362TW","pantry_check_details","","","","No Data"
"2017-06-24 15:50:21","OPDA9034TW","WHSA1100TW","pantry_check_details","","","","No Data"
"2017-06-24 15:50:21","OPDA8115TW","WHSA0181TW","pantry_check_details","","","","No Data"
"2017-06-24 15:50:21","OPDA9116TW","WHSA1182TW","pantry_check_details","","","","No Data"
"2017-06-24 15:50:21","OPDA8651TW","WHSA0717TW","pantry_check_details","","","","No Data"
"2017-06-24 15:50:21","OPDA9075TW","WHSA1141TW","pantry_check_details","","","","No Data"
"2017-06-24 15:50:21","OPDA8285TW","WHSA0351TW","pantry_check_details","","","","No Data"
"2017-06-24 15:50:21","OPDA8287TW","WHSA0353TW","pantry_check_details","","","","No Data"
"2017-06-24 15:50:21","OPDA9069TW","WHSA1135TW","pantry_check_details","","","","No Data"
"2017-06-24 15:50:21","OPDA8971TW","WHSA1037TW","pantry_check_details","","","","No Data"
"2017-06-24 15:50:21","OPDA8070TW","WHSA0136TW","pantry_check_details","","","","No Data"
"2017-06-24 15:50:21","OPDA8585TW","WHSA0651TW","pantry_check_details","","","","No Data"
"2017-06-24 15:50:21","OPDA8581TW","WHSA0647TW","pantry_check_details","","","","No Data"
"2017-06-24 15:50:21","OPDA9083TW","WHSA1149TW","pantry_check_details","","","","No Data"
"2017-06-24 15:50:21","OPDA8914TW","WHSA0980TW","pantry_check_details","","","","No Data"
"2017-06-24 15:50:21","OPDA8366TW","WHSA0432TW","pantry_check_details","","","","No Data"
"2017-06-24 15:50:21","OPDA8636TW","WHSA0702TW","pantry_check_details","","","","No Data"
"2017-06-24 15:50:21","OPDA9185TW","WHSA1251TW","pantry_check_details","","","","No Data"
"2017-06-24 15:50:21","OPDA8282TW","WHSA0348TW","pantry_check_details","","","","No Data"
"2017-06-24 15:50:21","OPDA8901TW","WHSA0967TW","pantry_check_details","","","","No Data"
"2017-06-24 15:50:21","OPDA8902TW","WHSA0968TW","pantry_check_details","","","","No Data"
"2017-06-24 15:50:21","OPDA9020TW","WHSA1086TW","pantry_check_details","","","","No Data"
"2017-06-24 15:50:21","OPDA00002550TW","WHSA00000080TW","pantry_check_details","","","","No Data"
"2017-06-24 15:50:21","OPDA8684TW","WHSA0750TW","pantry_check_details","","","","No Data"
"2017-06-24 15:50:21","OPDA8404TW","WHSA0470TW","pantry_check_details","","","","No Data"
"2017-06-24 15:50:21","OPDA8821TW","WHSA0887TW","pantry_check_details","","","","No Data"
"2017-06-24 15:50:21","OPDA8121TW","WHSA0187TW","pantry_check_details","","","","No Data"
"2017-06-24 15:50:21","OPDA8547TW","WHSA0613TW","pantry_check_details","","","","No Data"
"2017-06-24 15:50:21","OPDA8278TW","WHSA0344TW","pantry_check_details","","","","No Data"
"2017-06-24 15:50:21","OPDA8438TW","WHSA0504TW","pantry_check_details","","","","No Data"
"2017-06-24 15:50:21","OPDA8471TW","WHSA0537TW","pantry_check_details","","","","No Data"
"2017-06-24 15:50:21","OPDA8236TW","WHSA0302TW","pantry_check_details","","","","No Data"
"2017-06-24 15:50:21","OPDA8864TW","WHSA0930TW","pantry_check_details","","","","No Data"
"2017-06-24 15:50:21","OPDA8859TW","WHSA0925TW","pantry_check_details","","","","No Data"
"2017-06-24 15:50:21","OPDA8343TW","WHSA0409TW","pantry_check_details","","","","No Data"
"2017-06-24 15:50:21","OPDA8629TW","WHSA0695TW","pantry_check_details","","","","No Data"
"2017-06-24 15:50:21","OPDA8880TW","WHSA0946TW","pantry_check_details","","","","No Data"
"2017-06-24 15:50:21","OPDA8912TW","WHSA0978TW","pantry_check_details","","","","No Data"
"2017-06-24 15:50:21","OPDA8432TW","WHSA0498TW","pantry_check_details","","","","No Data"
"2017-06-24 15:50:21","OPDA8479TW","WHSA0545TW","pantry_check_details","","","","No Data"
"2017-06-24 15:50:21","OPDA8728TW","WHSA0794TW","pantry_check_details","","","","No Data"
"2017-06-24 15:50:21","OPDA9127TW","WHSA1193TW","pantry_check_details","","","","No Data"
"2017-06-24 15:50:21","OPDA9599TW","WHSA1266TW","pantry_check_details","","","","No Data"
"2017-06-24 15:50:21","OPDA9126TW","WHSA1192TW","pantry_check_details","","","","No Data"
"2017-06-24 15:50:21","OPDA8396TW","WHSA0462TW","pantry_check_details","","","","No Data"
"2017-06-24 15:50:21","OPDA8553TW","WHSA0619TW","pantry_check_details","","","","No Data"
"2017-06-24 15:50:21","OPDA8390TW","WHSA0456TW","pantry_check_details","","","","No Data"
"2017-06-24 15:50:21","OPDA8369TW","WHSA0435TW","pantry_check_details","","","","No Data"
"2017-06-24 15:50:21","OPDA8370TW","WHSA0436TW","pantry_check_details","","","","No Data"
"2017-06-24 15:50:21","OPDA8391TW","WHSA0457TW","pantry_check_details","","","","No Data"
"2017-06-24 15:50:21","OPDA8703TW","WHSA0769TW","pantry_check_details","","","","No Data"
"2017-06-24 15:50:21","OPDA8074TW","WHSA0140TW","pantry_check_details","","","","No Data"
"2017-06-24 15:50:21","OPDA7936TW","WHSA0002TW","pantry_check_details","","","","No Data"
"2017-06-24 15:50:21","OPDA8987TW","WHSA1053TW","pantry_check_details","","","","No Data"
"2017-06-24 15:50:21","OPDA8048TW","WHSA0114TW","pantry_check_details","","","","No Data"
"2017-06-24 15:50:21","OPDA8883TW","WHSA0949TW","pantry_check_details","","","","No Data"
"2017-06-24 15:50:21","OPDA8625TW","WHSA0691TW","pantry_check_details","","","","No Data"
"2017-06-24 15:50:21","OPDA8737TW","WHSA0803TW","pantry_check_details","","","","No Data"
"2017-06-24 15:50:21","OPDA8739TW","WHSA0805TW","pantry_check_details","","","","No Data"
"2017-06-24 15:50:21","OPDA8697TW","WHSA0763TW","pantry_check_details","","","","No Data"
"2017-06-24 15:50:21","OPDA9052TW","WHSA1118TW","pantry_check_details","","","","No Data"
"2017-06-24 15:50:21","OPDA9133TW","WHSA1199TW","pantry_check_details","","","","No Data"
"2017-06-24 15:50:21","OPDA8782TW","WHSA0848TW","pantry_check_details","","","","No Data"
"2017-06-24 15:50:21","OPDA8572TW","WHSA0638TW","pantry_check_details","","","","No Data"
"2017-06-24 15:50:21","OPDA00000203TW","WHSA00000072TW","pantry_check_details","","","","No Data"
"2017-06-24 15:50:21","OPDA8906TW","WHSA0972TW","pantry_check_details","","","","No Data"
"2017-06-24 15:50:21","OPDA8856TW","WHSA0922TW","pantry_check_details","","","","No Data"
"2017-06-24 15:50:21","OPDA8475TW","WHSA0541TW","pantry_check_details","","","","No Data"
"2017-06-24 15:50:21","OPDA8097TW","WHSA0163TW","pantry_check_details","","","","No Data"
"2017-06-24 15:50:21","OPDA00002512TW","WHSA00000079TW","pantry_check_details","","","","No Data"
"2017-06-24 15:50:21","OPDA8857TW","WHSA0923TW","pantry_check_details","","","","No Data"
"2017-06-24 15:50:21","OPDA00002737TW","WHSA00000082TW","pantry_check_details","","","","No Data"
"2017-06-24 15:50:21","OPDA8541TW","WHSA0607TW","pantry_check_details","","","","No Data"
"2017-06-24 15:50:21","OPDA8177TW","WHSA0243TW","pantry_check_details","","","","No Data"
"2017-06-24 15:50:21","OPDA8308TW","WHSA0374TW","pantry_check_details","","","","No Data"
"2017-06-24 15:50:21","OPDA9172TW","WHSA1238TW","pantry_check_details","","","","No Data"
"2017-06-24 15:50:21","OPDA9151TW","WHSA1217TW","pantry_check_details","","","","No Data"
"2017-06-24 15:50:21","OPDA9031TW","WHSA1097TW","pantry_check_details","","","","No Data"
"2017-06-24 15:50:21","OPDA9005TW","WHSA1071TW","pantry_check_details","","","","No Data"
"2017-06-24 15:50:21","OPDA8392TW","WHSA0458TW","pantry_check_details","","","","No Data"
"2017-06-24 15:50:21","OPDA8894TW","WHSA0960TW","pantry_check_details","","","","No Data"
"2017-06-24 15:50:21","OPDA8445TW","WHSA0511TW","pantry_check_details","","","","No Data"
"2017-06-24 15:50:21","OPDA00002063TW","WHSA00000075TW","pantry_check_details","","","","No Data"
"2017-06-24 15:50:21","OPDA7953TW","WHSA0019TW","pantry_check_details","","","","No Data"
"2017-06-24 15:50:21","OPDA8459TW","WHSA0525TW","pantry_check_details","","","","No Data"
"2017-06-24 15:50:21","OPDA8933TW","WHSA0999TW","pantry_check_details","","","","No Data"
"2017-06-24 15:50:21","OPDA8407TW","WHSA0473TW","pantry_check_details","","","","No Data"
"2017-06-24 15:50:21","OPDA8145TW","WHSA0211TW","pantry_check_details","","","","No Data"
"2017-06-24 15:50:21","OPDA00000529TW","WHSA00000029TW","pantry_check_details","","","","No Data"
"2017-06-24 15:50:21","OPDA9166TW","WHSA1232TW","pantry_check_details","","","","No Data"
"2017-06-24 15:50:21","OPDA8195TW","WHSA0261TW","pantry_check_details","","","","No Data"
"2017-06-24 15:50:21","OPDA9120TW","WHSA1186TW","pantry_check_details","","","","No Data"
"2017-06-24 15:50:21","OPDA8160TW","WHSA0226TW","pantry_check_details","","","","No Data"
"2017-06-24 15:50:21","OPDA8067TW","WHSA0133TW","pantry_check_details","","","","No Data"
"2017-06-24 15:50:21","OPDA8233TW","WHSA0299TW","pantry_check_details","","","","No Data"
"2017-06-24 15:50:21","OPDA8232TW","WHSA0298TW","pantry_check_details","","","","No Data"
"2017-06-24 15:50:21","OPDA8735TW","WHSA0801TW","pantry_check_details","","","","No Data"
"2017-06-24 15:50:21","OPDA8069TW","WHSA0135TW","pantry_check_details","","","","No Data"
"2017-06-24 15:50:21","OPDA8551TW","WHSA0617TW","pantry_check_details","","","","No Data"
"2017-06-24 15:50:21","OPDA9592TW","WHSA1261TW","pantry_check_details","","","","No Data"
"2017-06-24 15:50:21","OPDA8665TW","WHSA0731TW","pantry_check_details","","","","No Data"
"2017-06-24 15:50:21","OPDA00002217TW","WHSA00000065TW","pantry_check_details","","","","No Data"
"2017-06-24 15:50:21","OPDA00001313TW","WHSA00000051TW","pantry_check_details","","","","No Data"
"2017-06-24 15:50:21","OPDA8458TW","WHSA0524TW","pantry_check_details","","","","No Data"
"2017-06-24 15:50:21","OPDA9135TW","WHSA1201TW","pantry_check_details","","","","No Data"
"2017-06-24 15:50:21","OPDA8147TW","WHSA0213TW","pantry_check_details","","","","No Data"
"2017-06-24 15:50:21","OPDA8099TW","WHSA0165TW","pantry_check_details","","","","No Data"
"2017-06-24 15:50:21","OPDA8569TW","WHSA0635TW","pantry_check_details","","","","No Data"
"2017-06-24 15:50:21","OPDA8157TW","WHSA0223TW","pantry_check_details","","","","No Data"
"2017-06-24 15:50:21","OPDA8885TW","WHSA0951TW","pantry_check_details","","","","No Data"
"2017-06-24 15:50:21","OPDA8888TW","WHSA0954TW","pantry_check_details","","","","No Data"
"2017-06-24 15:50:21","OPDA8749TW","WHSA0815TW","pantry_check_details","","","","No Data"
"2017-06-24 15:50:21","OPDA8622TW","WHSA0688TW","pantry_check_details","","","","No Data"
"2017-06-24 15:50:21","OPDA8930TW","WHSA0996TW","pantry_check_details","","","","No Data"
"2017-06-24 15:50:21","OPDA8241TW","WHSA0307TW","pantry_check_details","","","","No Data"
"2017-06-24 15:50:21","OPDA9590TW","WHSA1259TW","pantry_check_details","","","","No Data"
"2017-06-24 15:50:21","OPDA8530TW","WHSA0596TW","pantry_check_details","","","","No Data"
"2017-06-24 15:50:21","OPDA8436TW","WHSA0502TW","pantry_check_details","","","","No Data"
"2017-06-24 15:50:21","OPDA8362TW","WHSA0428TW","pantry_check_details","","","","No Data"
"2017-06-24 15:50:21","OPDA8579TW","WHSA0645TW","pantry_check_details","","","","No Data"
"2017-06-24 15:50:21","OPDA8393TW","WHSA0459TW","pantry_check_details","","","","No Data"
"2017-06-24 15:50:21","OPDA8875TW","WHSA0941TW","pantry_check_details","","","","No Data"
"2017-06-24 15:50:21","OPDA8075TW","WHSA0141TW","pantry_check_details","","","","No Data"
"2017-06-24 15:50:21","OPDA8402TW","WHSA0468TW","pantry_check_details","","","","No Data"
"2017-06-24 15:50:21","OPDA8498TW","WHSA0564TW","pantry_check_details","","","","No Data"
"2017-06-24 15:50:21","OPDA8537TW","WHSA0603TW","pantry_check_details","","","","No Data"
"2017-06-24 15:50:21","OPDA8639TW","WHSA0705TW","pantry_check_details","","","","No Data"
"2017-06-24 15:50:21","OPDA8181TW","WHSA0247TW","pantry_check_details","","","","No Data"
"2017-06-24 15:50:21","OPDA8497TW","WHSA0563TW","pantry_check_details","","","","No Data"
"2017-06-24 15:50:21","OPDA8013TW","WHSA0079TW","pantry_check_details","","","","No Data"
"2017-06-24 15:50:21","OPDA7950TW","WHSA0016TW","pantry_check_details","","","","No Data"
"2017-06-24 15:50:21","OPDA8801TW","WHSA0867TW","pantry_check_details","","","","No Data"
"2017-06-24 15:50:21","OPDA8997TW","WHSA1063TW","pantry_check_details","","","","No Data"
"2017-06-24 15:50:21","OPDA8347TW","WHSA0413TW","pantry_check_details","","","","No Data"
"2017-06-24 15:50:21","OPDA8222TW","WHSA0288TW","pantry_check_details","","","","No Data"
"2017-06-24 15:50:21","OPDA7983TW","WHSA0049TW","pantry_check_details","","","","No Data"
"2017-06-24 15:50:21","OPDA8478TW","WHSA0544TW","pantry_check_details","","","","No Data"
"2017-06-24 15:50:21","OPDA8794TW","WHSA0860TW","pantry_check_details","","","","No Data"
"2017-06-24 15:50:21","OPDA8036TW","WHSA0102TW","pantry_check_details","","","","No Data"
"2017-06-24 15:50:21","OPDA00000286TW","WHSA00000017TW","pantry_check_details","","","","No Data"
"2017-06-24 15:50:21","OPDA8919TW","WHSA0985TW","pantry_check_details","","","","No Data"
"2017-06-24 15:50:21","OPDA8312TW","WHSA0378TW","pantry_check_details","","","","No Data"
"2017-06-24 15:50:21","OPDA8686TW","WHSA0752TW","pantry_check_details","","","","No Data"
"2017-06-24 15:50:21","OPDA7979TW","WHSA0045TW","pantry_check_details","","","","No Data"
"2017-06-24 15:50:21","OPDA8957TW","WHSA1023TW","pantry_check_details","","","","No Data"
"2017-06-24 15:50:21","OPDA8274TW","WHSA0340TW","pantry_check_details","","","","No Data"
"2017-06-24 15:50:21","OPDA8845TW","WHSA0911TW","pantry_check_details","","","","No Data"
"2017-06-24 15:50:21","OPDA8867TW","WHSA0933TW","pantry_check_details","","","","No Data"
"2017-06-24 15:50:21","OPDA8869TW","WHSA0935TW","pantry_check_details","","","","No Data"
"2017-06-24 15:50:21","OPDA8712TW","WHSA0778TW","pantry_check_details","","","","No Data"