"Date","Customer","Whosaler","Table","Id","SQL","Column effect","Status"
"2017-03-27 12:25:40","OPDA9601TW","WHSA1268TW","route_master_temp","156710","UPDATE `route_master_temp` SET `last_updated` = '2017-03-27 12:25:40', `armstrong_2_customers_id` = 'WHSA1268TW' WHERE `id` = '156710'","1","Success"
"2017-03-27 12:25:40","OPDA7956TW","WHSA0022TW","route_master_temp","161120","UPDATE `route_master_temp` SET `last_updated` = '2017-03-27 12:25:40', `armstrong_2_customers_id` = 'WHSA0022TW' WHERE `id` = '161120'","1","Success"
"2017-03-27 12:25:40","OPDA7956TW","WHSA0022TW","route_master_temp","161094","UPDATE `route_master_temp` SET `last_updated` = '2017-03-27 12:25:40', `armstrong_2_customers_id` = 'WHSA0022TW' WHERE `id` = '161094'","1","Success"
"2017-03-27 12:25:40","OPDA7956TW","WHSA0022TW","route_master_temp","161073","UPDATE `route_master_temp` SET `last_updated` = '2017-03-27 12:25:40', `armstrong_2_customers_id` = 'WHSA0022TW' WHERE `id` = '161073'","1","Success"
"2017-03-27 12:25:40","OPDA7956TW","WHSA0022TW","route_master_temp","161034","UPDATE `route_master_temp` SET `last_updated` = '2017-03-27 12:25:40', `armstrong_2_customers_id` = 'WHSA0022TW' WHERE `id` = '161034'","1","Success"
"2017-03-27 12:25:40","OPDA7956TW","WHSA0022TW","route_master_temp","161025","UPDATE `route_master_temp` SET `last_updated` = '2017-03-27 12:25:40', `armstrong_2_customers_id` = 'WHSA0022TW' WHERE `id` = '161025'","1","Success"
"2017-03-27 12:25:40","OPDA7956TW","WHSA0022TW","route_master_temp","160974","UPDATE `route_master_temp` SET `last_updated` = '2017-03-27 12:25:40', `armstrong_2_customers_id` = 'WHSA0022TW' WHERE `id` = '160974'","1","Success"