TFO ID,CALL ID,OLD SKU,NEW SKU,PRODUCT OLD,PRODUCT NEW,STATUS
"TFOA00009329TH","CALA00039734TH","67021687","67021685","[{""expiry_dates"":[],""sku_number"":""21011196"",""quantity_case"":15,""free_case"":0,""price"":996,""qty_piece"":0,""newSKU"":false,""qty_case"":1,""free_piece"":0},{""expiry_dates"":[],""sku_number"":""67021685"",""quantity_case"":10,""free_case"":0,""price"":725,""qty_piece"":0,""newSKU"":false,""qty_case"":1,""free_piece"":0}]","","","check_again"
"TFOA00013003TH","CALA00059217TH","67021687","67021685","[{""isOverRankDiscount"":false,""expiry_dates"":[],""currentDiscountSKU"":0,""freeGifts"":{},""newDiscountSKU"":0,""sku_number"":""67021685"",""quantity_case"":10,""free_case"":0,""price"":725,""newSKU"":false,""qty_piece"":0,""rankDiscount"":"""",""qty_case"":2,""free_piece"":0}]","","","check_again"
"TFOA00013004TH","CALA00059218TH","67021687","67021685","[{""isOverRankDiscount"":false,""expiry_dates"":[],""currentDiscountSKU"":0,""freeGifts"":{},""newDiscountSKU"":0,""sku_number"":""67021685"",""quantity_case"":10,""free_case"":0,""price"":725,""newSKU"":false,""qty_piece"":0,""rankDiscount"":"""",""qty_case"":2,""free_piece"":0}]","","","check_again"