"Date","Customer","Whosaler","TFO ID","PSD ID","Status"
"2017-05-04 11:52:07","OPDA9153TW","WHSA1219TW","TFOA00000874TW","PSDB00008823TW","Duplicate"
"2017-05-04 11:52:07","OPDA9153TW","WHSA1219TW","TFOA00001060TW","PSDB00008823TW","Duplicate"
"2017-05-04 11:52:07","OPDA9153TW","WHSA1219TW","TFOA00001179TW","PSDB00008823TW","Duplicate"
"2017-05-04 11:52:07","OPDA9153TW","WHSA1219TW","TFOA00003851TW","PSDB00038612TW","Duplicate"
"2017-05-04 11:52:07","OPDA9153TW","WHSA1219TW","TFOA00003999TW","PSDB00040089TW","Duplicate"
"2017-05-04 11:52:07","OPDA9153TW","WHSA1219TW","TFOA00004993TW","PSDB00049168TW","Duplicate"
"2017-05-04 11:52:07","OPDA9153TW","WHSA1219TW","TFOA00005069TW","PSDB00049852TW","Duplicate"
"2017-05-04 11:52:07","OPDA9153TW","WHSA1219TW","TFOA00005071TW","PSDB00049870TW","Duplicate"
"2017-05-04 11:52:07","OPDA9153TW","WHSA1219TW","TFOA00006474TW","PSDB00062486TW","Duplicate"
"2017-05-04 11:52:07","OPDA9153TW","WHSA1219TW","TFOA00007785TW","PSDB00074273TW","Duplicate"
"2017-05-04 11:52:07","OPDA9153TW","WHSA1219TW","TFOA00011353TW","PSDB00106347TW","Duplicate"
"2017-05-04 11:52:07","OPDA9153TW","WHSA1219TW","TFOA00013292TW","PSDB00123286TW","Duplicate"
"2017-05-04 11:52:07","OPDA9153TW","WHSA1219TW","TFOA00018960TW","PSDB00156916TW","Duplicate"
"2017-05-04 11:52:07","OPDA9153TW","WHSA1219TW","TFOA00022645TW","PSDB00175307TW","Duplicate"
"2017-05-04 11:52:07","OPDA9153TW","WHSA1219TW","TFOA00023237TW","PSDB00178264TW","Duplicate"
"2017-05-04 11:52:07","OPDA9153TW","WHSA1219TW","TFOA00025103TW","PSDB00187587TW","Duplicate"
"2017-05-04 11:52:07","OPDA9153TW","WHSA1219TW","TFOA00027175TW","PSDB00197937TW","Duplicate"
"2017-05-04 11:52:07","OPDA9153TW","WHSA1219TW","TFOA00037179TW","PSDB00239576TW","Duplicate"
"2017-05-04 11:52:07","OPDA9153TW","WHSA1219TW","TFOA00037738TW","PSDB00241810TW","Duplicate"
"2017-05-04 11:52:07","OPDA9153TW","WHSA1219TW","TFOA00039110TW","PSDB00247289TW","Duplicate"
"2017-05-04 11:52:07","OPDA9153TW","WHSA1219TW","TFOA00040375TW","PSDB00252334TW","Duplicate"
"2017-05-04 11:52:07","OPDA9153TW","WHSA1219TW","TFOA00043024TW","PSDB00261465TW","Duplicate"
"2017-05-04 11:52:07","OPDA9153TW","WHSA1219TW","TFOA00045126TW","PSDB00267748TW","Duplicate"
"2017-05-04 11:52:07","OPDA9153TW","WHSA1219TW","TFOA00045267TW","PSDB00268169TW","Duplicate"
"2017-05-04 11:52:07","OPDA9153TW","WHSA1219TW","TFOA00048937TW","PSDB00279161TW","Duplicate"
"2017-05-04 11:52:07","OPDA9153TW","WHSA1219TW","TFOA00050579TW","PSDB00284087TW","Duplicate"
"2017-05-04 11:52:07","OPDA9153TW","WHSA1219TW","TFOA00051611TW","PSDB00287183TW","Duplicate"