country_id,country_code,armstrong_2_distributors_id,armstrong_2_distributors_name,sku_number,sku_description,git,invoice_value
13,uae,DISA00000008UAE,TEST,67003121,Knorr Beef Broth Base with free apron,115,231
13,uae,DISA00000008UAE,TEST,67003123,Knorr Chicken Broth Base with free apron,380,65
13,uae,DISA00000008UAE,TEST,67003117,Knorr Pork Broth Base with free apron,255,13
13,uae,DISA00000008UAE,TEST,67003119,Knorr Sinigang Broth with free apron,4,20
13,uae,DISA00000008UAE,TEST,20082318,300 BUAVITA ORANGE MANDARIN,464,173
13,uae,DISA00000008UAE,TEST,20081865,250 BUAVITA ORANGE,435,422
13,uae,DISA00000008UAE,TEST,20081902,BUAVITA APPLE,5,218
13,uae,DISA00000008UAE,TEST,20082312,BUAVITA APPLE,386,380
13,uae,DISA00000010UAE,Yum QSR,67003121,Knorr Beef Broth Base with free apron,384,493
13,uae,DISA00000010UAE,Yum QSR,67003123,Knorr Chicken Broth Base with free apron,316,10
13,uae,DISA00000010UAE,Yum QSR,67003117,Knorr Pork Broth Base with free apron,430,442
13,uae,DISA00000010UAE,Yum QSR,67003119,Knorr Sinigang Broth with free apron,228,191
13,uae,DISA00000010UAE,Yum QSR,20082318,300 BUAVITA ORANGE MANDARIN,72,183
13,uae,DISA00000010UAE,Yum QSR,20081865,250 BUAVITA ORANGE,459,402
13,uae,DISA00000010UAE,Yum QSR,20081902,BUAVITA APPLE,244,290
13,uae,DISA00000010UAE,Yum QSR,20082312,BUAVITA APPLE,171,213
13,uae,DISA00000011UAE,Dummy distributor,67003121,Knorr Beef Broth Base with free apron,221,195
13,uae,DISA00000011UAE,Dummy distributor,67003123,Knorr Chicken Broth Base with free apron,1,35
13,uae,DISA00000011UAE,Dummy distributor,67003117,Knorr Pork Broth Base with free apron,496,4
13,uae,DISA00000011UAE,Dummy distributor,67003119,Knorr Sinigang Broth with free apron,416,214
13,uae,DISA00000011UAE,Dummy distributor,20082318,300 BUAVITA ORANGE MANDARIN,114,334
13,uae,DISA00000011UAE,Dummy distributor,20081865,250 BUAVITA ORANGE,366,477
13,uae,DISA00000011UAE,Dummy distributor,20081902,BUAVITA APPLE,94,479
13,uae,DISA00000011UAE,Dummy distributor,20082312,BUAVITA APPLE,5,89
12,ksa,DISA00000011KSA,TEST UUU,67003121,Knorr Beef Broth Base with free apron,407,456
12,ksa,DISA00000011KSA,TEST UUU,67003123,Knorr Chicken Broth Base with free apron,78,159
12,ksa,DISA00000011KSA,TEST UUU,67003117,Knorr Pork Broth Base with free apron,33,56
12,ksa,DISA00000011KSA,TEST UUU,67003119,Knorr Sinigang Broth with free apron,379,263
12,ksa,DISA00000011KSA,TEST UUU,20082318,300 BUAVITA ORANGE MANDARIN,272,288
12,ksa,DISA00000011KSA,TEST UUU,20081865,250 BUAVITA ORANGE,220,108
12,ksa,DISA00000011KSA,TEST UUU,20081902,BUAVITA APPLE,480,99
12,ksa,DISA00000011KSA,TEST UUU,20082312,BUAVITA APPLE,78,314
12,ksa,DISA00000012KSA,HHHGFD,67003121,Knorr Beef Broth Base with free apron,482,468
12,ksa,DISA00000012KSA,HHHGFD,67003123,Knorr Chicken Broth Base with free apron,148,416
12,ksa,DISA00000012KSA,HHHGFD,67003117,Knorr Pork Broth Base with free apron,301,338
12,ksa,DISA00000012KSA,HHHGFD,67003119,Knorr Sinigang Broth with free apron,488,433
12,ksa,DISA00000012KSA,HHHGFD,20082318,300 BUAVITA ORANGE MANDARIN,102,111
12,ksa,DISA00000012KSA,HHHGFD,20081865,250 BUAVITA ORANGE,245,115
12,ksa,DISA00000012KSA,HHHGFD,20081902,BUAVITA APPLE,61,235
12,ksa,DISA00000012KSA,HHHGFD,20082312,BUAVITA APPLE,306,250
