country_id,country_code,armstrong_2_distributors_id,armstrong_2_distributors_name,sku_number,sku_description,forecast,shipment_plan
13,uae,DISA00000008UAE,M H Enterprise,20098377,BEST FOODS SALAD OIL 4 x 3.3L,200,150
13,uae,DISA00000008UAE,M H Enterprise,20101971,BEST FOODS PT-S PENNE,100,120
13,uae,DISA00000008UAE,M H Enterprise,20101997,BEST FOODS ELBOW MACARONI 2 x 2.5KG,150,200
13,uae,DISA00000008UAE,M H Enterprise,20102326,BESTFOODS DARK CHOCCHIP,150,300
