country_id,country,armstrong_2_distributors_id,armstrong_2_distributors_name,sku_number,sku_description,invoice_qty,invoice_value,invoice_date
13,uae,DISA00000008UAE,M H Enterprise,20098377,BEST FOODS SALAD OIL 4 x 3.3L,200,250000,1/5/2018
13,uae,DISA00000008UAE,M H Enterprise,20101971,BEST FOODS PT-S PENNE,50,20000,1/5/2018
13,uae,DISA00000008UAE,M H Enterprise,20098377,BEST FOODS SALAD OIL 4 x 3.3L,100,250000,1/10/2018
13,uae,DISA00000008UAE,M H Enterprise,20101971,BEST FOODS PT-S PENNE,60,25000,1/10/2018
13,uae,DISA00000008UAE,M H Enterprise,20101971,BEST FOODS PT-S PENNE,70,500,1/11/2018
