country_id,country_code,armstrong_2_distributors_id,armstrong_2_distributors_name,sku_number,sku_description,forecast,shipment_plan
13,uae,DISA00000008UAE,M H Enterprise,20098377,BEST FOODS SALAD OIL 4 x 3.3L,111,555
13,uae,DISA00000008UAE,M H Enterprise,20101971,BEST FOODS PT-S PENNE,222,666
13,uae,DISA00000008UAE,M H Enterprise,20101997,BEST FOODS ELBOW MACARONI 2 x 2.5KG,333,777
13,uae,DISA00000008UAE,M H Enterprise,20102326,BESTFOODS DARK CHOCCHIP,444,888
