country_id,country_code,armstrong_2_distributors_id,armstrong_2_distributors_name,sku_number,sku_description,forecast,shipment_plan
13,uae,DISA00000008UAE,TEST,67003121,Knorr Beef Broth Base with free apron,10,13824
13,uae,DISA00000008UAE,TEST,67003123,Knorr Chicken Broth Base with free apron,20,13823
13,uae,DISA00000008UAE,TEST,67003117,Knorr Pork Broth Base with free apron,30,13822
13,uae,DISA00000008UAE,TEST,67003119,Knorr Sinigang Broth with free apron,40,13821
13,uae,DISA00000008UAE,TEST,20082318,300 BUAVITA ORANGE MANDARIN,50,13820
13,uae,DISA00000008UAE,TEST,20081865,250 BUAVITA ORANGE,60,13819
13,uae,DISA00000008UAE,TEST,20081902,BUAVITA APPLE,70,13818
13,uae,DISA00000008UAE,TEST,20082312,BUAVITA APPLE,80,13817
13,uae,DISA00000010UAE,Yum QSR,67003121,Knorr Beef Broth Base with free apron,165,13660
13,uae,DISA00000010UAE,Yum QSR,67003123,Knorr Chicken Broth Base with free apron,166,13659
13,uae,DISA00000010UAE,Yum QSR,67003117,Knorr Pork Broth Base with free apron,167,13658
13,uae,DISA00000010UAE,Yum QSR,67003119,Knorr Sinigang Broth with free apron,168,13657
13,uae,DISA00000010UAE,Yum QSR,20082318,300 BUAVITA ORANGE MANDARIN,169,13656
13,uae,DISA00000010UAE,Yum QSR,20081865,250 BUAVITA ORANGE,170,13655
13,uae,DISA00000010UAE,Yum QSR,20081902,BUAVITA APPLE,171,13654
13,uae,DISA00000010UAE,Yum QSR,20082312,BUAVITA APPLE,172,13653
13,uae,DISA00000011UAE,Dummy distributor,67003121,Knorr Beef Broth Base with free apron,332,13493
13,uae,DISA00000011UAE,Dummy distributor,67003123,Knorr Chicken Broth Base with free apron,333,13492
13,uae,DISA00000011UAE,Dummy distributor,67003117,Knorr Pork Broth Base with free apron,334,13491
13,uae,DISA00000011UAE,Dummy distributor,67003119,Knorr Sinigang Broth with free apron,335,13490
13,uae,DISA00000011UAE,Dummy distributor,20082318,300 BUAVITA ORANGE MANDARIN,336,13489
13,uae,DISA00000011UAE,Dummy distributor,20081865,250 BUAVITA ORANGE,337,13488
13,uae,DISA00000011UAE,Dummy distributor,20081902,BUAVITA APPLE,338,13487
13,uae,DISA00000011UAE,Dummy distributor,20082312,BUAVITA APPLE,339,13486
12,ksa,DISA00000011KSA,TEST UUU,67003121,Knorr Beef Broth Base with free apron,340,13485
12,ksa,DISA00000011KSA,TEST UUU,67003123,Knorr Chicken Broth Base with free apron,341,13484
12,ksa,DISA00000011KSA,TEST UUU,67003117,Knorr Pork Broth Base with free apron,342,13483
12,ksa,DISA00000011KSA,TEST UUU,67003119,Knorr Sinigang Broth with free apron,343,13482
12,ksa,DISA00000011KSA,TEST UUU,20082318,300 BUAVITA ORANGE MANDARIN,344,13481
12,ksa,DISA00000011KSA,TEST UUU,20081865,250 BUAVITA ORANGE,345,13480
12,ksa,DISA00000011KSA,TEST UUU,20081902,BUAVITA APPLE,346,13479
12,ksa,DISA00000011KSA,TEST UUU,20082312,BUAVITA APPLE,347,13478
12,ksa,DISA00000012KSA,HHHGFD,67003121,Knorr Beef Broth Base with free apron,348,13477
12,ksa,DISA00000012KSA,HHHGFD,67003123,Knorr Chicken Broth Base with free apron,349,13476
12,ksa,DISA00000012KSA,HHHGFD,67003117,Knorr Pork Broth Base with free apron,350,13475
12,ksa,DISA00000012KSA,HHHGFD,67003119,Knorr Sinigang Broth with free apron,351,13474
12,ksa,DISA00000012KSA,HHHGFD,20082318,300 BUAVITA ORANGE MANDARIN,352,13473
12,ksa,DISA00000012KSA,HHHGFD,20081865,250 BUAVITA ORANGE,353,13472
12,ksa,DISA00000012KSA,HHHGFD,20081902,BUAVITA APPLE,354,13471
12,ksa,DISA00000012KSA,HHHGFD,20082312,BUAVITA APPLE,355,13470
