country_id,country,armstrong_2_distributors_id,armstrong_2_distributors_name,sku_number,sku_description,invoice_qty,invoice_value,invoice_date
13,uae,DISA00000008UAE,TEST,67003121,Knorr Beef Broth Base with free apron,43,35,01/12/2017 0:00
13,uae,DISA00000010UAE,Yum QSR,67003123,Knorr Chicken Broth Base with free apron,18,40,07/12/2017 0:00
13,uae,DISA00000011UAE,Dummy distributor,67003117,Knorr Pork Broth Base with free apron,75,59,14/12/2017 0:00
12,ksa,DISA00000012KSA,HHHGFD,20082312,BUAVITA APPLE,63,61,21/12/2017 0:00
