country_id,country,armstrong_2_distributors_id,armstrong_2_distributors_name,sku_number,sku_description,invoice_qty,invoice_value,invoice_date
!@#!@#,uae,DISA00000008UAE,TEST,67003121,Knorr Beef Broth Base with free apron,43,35,2/1/2018 0:00
13,uae,DISA00000008UAE,TEST,67003121,Knorr Beef Broth Base with free apron,50,40,2/7/2018 0:00
13,uae,DISA00000008UAE,TEST,67003121,Knorr Beef Broth Base with free apron,75,59,2/14/2018 0:00
13,uae,DISA00000008UAE,TEST,67003121,Knorr Beef Broth Base with free apron,63,61,2/21/2018 0:00
13,uae,DISA00000008UAE,TEST,67003123,Knorr Chicken Broth Base with free apron,100,11,2/1/2018 0:00
13,uae,DISA00000008UAE,TEST,67003123,Knorr Chicken Broth Base with free apron,26,64,2/7/2018 0:00
13,uae,DISA00000008UAE,TEST,67003123,Knorr Chicken Broth Base with free apron,88,45,2/14/2018 0:00
13,uae,DISA00000008UAE,TEST,67003123,Knorr Chicken Broth Base with free apron,2,33,2/21/2018 0:00
13,uae,DISA00000008UAE,TEST,67003117,Knorr Pork Broth Base with free apron,84,1,2/1/2018 0:00
13,uae,DISA00000008UAE,TEST,67003117,Knorr Pork Broth Base with free apron,15,27,2/7/2018 0:00
13,uae,DISA00000008UAE,TEST,67003117,Knorr Pork Broth Base with free apron,11,1,2/14/2018 0:00
13,uae,DISA00000008UAE,TEST,67003117,Knorr Pork Broth Base with free apron,40,1,2/21/2018 0:00
13,uae,DISA00000008UAE,TEST,67003119,Knorr Sinigang Broth with free apron,50,67,2/1/2018 0:00
13,uae,DISA00000008UAE,TEST,67003119,Knorr Sinigang Broth with free apron,89,37,2/7/2018 0:00
13,uae,DISA00000008UAE,TEST,67003119,Knorr Sinigang Broth with free apron,68,3,2/14/2018 0:00
13,uae,DISA00000008UAE,TEST,67003119,Knorr Sinigang Broth with free apron,62,86,2/21/2018 0:00
13,uae,DISA00000008UAE,TEST,20082318,300 BUAVITA ORANGE MANDARIN,55,66,2/1/2018 0:00
13,uae,DISA00000008UAE,TEST,20082318,300 BUAVITA ORANGE MANDARIN,74,43,2/7/2018 0:00
13,uae,DISA00000008UAE,TEST,20082318,300 BUAVITA ORANGE MANDARIN,7,22,2/14/2018 0:00
13,uae,DISA00000008UAE,TEST,20082318,300 BUAVITA ORANGE MANDARIN,16,75,2/21/2018 0:00
13,uae,DISA00000008UAE,TEST,20081865,250 BUAVITA ORANGE,10,86,2/1/2018 0:00
13,uae,DISA00000008UAE,TEST,20081865,250 BUAVITA ORANGE,6,93,2/7/2018 0:00
13,uae,DISA00000008UAE,TEST,20081865,250 BUAVITA ORANGE,34,16,2/14/2018 0:00
13,uae,DISA00000008UAE,TEST,20081865,250 BUAVITA ORANGE,97,20,2/21/2018 0:00
13,uae,DISA00000008UAE,TEST,20081902,BUAVITA APPLE,6,49,2/1/2018 0:00
13,uae,DISA00000008UAE,TEST,20081902,BUAVITA APPLE,48,95,2/7/2018 0:00
13,uae,DISA00000008UAE,TEST,20081902,BUAVITA APPLE,68,73,2/14/2018 0:00
13,uae,DISA00000008UAE,TEST,20081902,BUAVITA APPLE,45,60,2/21/2018 0:00
13,uae,DISA00000008UAE,TEST,20082312,BUAVITA APPLE,21,3,2/1/2018 0:00
13,uae,DISA00000008UAE,TEST,20082312,BUAVITA APPLE,70,43,2/7/2018 0:00
13,uae,DISA00000008UAE,TEST,20082312,BUAVITA APPLE,77,30,2/14/2018 0:00
