country_id,country_code,armstrong_2_distributors_id,armstrong_2_distributors_name,sku_number,sku_description,git,invoice_value
13,uae,DISA00000008UAE,TEST,67003121,Knorr Beef Broth Base with free apron,1,10
13,uae,DISA00000008UAE,TEST,67003121,Knorr Beef Broth Base with free apron,1,10
13,uae,DISA00000011UAE,Dummy distributor,20081865,250 BUAVITA ORANGE,3,30
12,ksa,DISA00000012KSA,TEST UUU,67003119,Knorr Sinigang Broth with free apron,4,40
12,ksa,DISA00000012KSA,HHHGFD,20082312,BUAVITA APPLE,5,50
