country_id,country_code,armstrong_2_distributors_id,armstrong_2_distributors_name,sku_number,sku_description,git,invoice_value
13,uae,DISA00000008UAE,TEST,67003121,Knorr Beef Broth Base with free apron,0,sss
13,uae,DISA00000010UAE,Yum QSR,67003123,Knorr Chicken Broth Base with free apron,2,0
13,uae,DISA00000011UAE,Dummy distributor,20081865,250 BUAVITA ORANGE,,30
12,ksa,DISA00000011KSA,TEST UUU,67003119,Knorr Sinigang Broth with free apron,4,
12,ksa,DISA00000012KSA,HHHGFD,20082312,BUAVITA APPLE,x,50
