country_id,country_code,armstrong_2_distributors_id,armstrong_2_distributors_name,sku_number,sku_description,forecast,shipment_plan
13,uae,DISA00000008UAE,TEST,67003121,Knorr Beef Broth Base with free apron,1,10
13,uae,DISA00000008UAE,Yum QSR,67003123,Knorr Chicken Broth Base with free apron,2,20
13,uae,DISA00000011UAE,Dummy distributor,67003117,Knorr Pork Broth Base with free apron,3,30
12,ksa,DISA00000011UAE,HHHGFD,20082312,BUAVITA APPLE,4,40
