country_id,country,armstrong_2_distributors_id,armstrong_2_distributors_name,sku_number,sku_description,invoice_qty,invoice_value,invoice_date
13,uae,DISA00000008UAE,M H Enterprise,20098377,BEST FOODS SALAD OIL 4 x 3.3L,50,50,2017-12-01 00:00:00
13,uae,DISA00000008UAE,M H Enterprise,20098377,BEST FOODS SALAD OIL 4 x 3.3L,70,70,2017-12-07 00:00:00
13,uae,DISA00000008UAE,M H Enterprise,20098377,BEST FOODS SALAD OIL 4 x 3.3L,10,10,2017-12-14 00:00:00
13,uae,DISA00000008UAE,M H Enterprise,20098377,BEST FOODS SALAD OIL 4 x 3.3L,25,25,2017-12-21 00:00:00
13,uae,DISA00000008UAE,M H Enterprise,20101971,BEST FOODS PT-S PENNE,25,25,2017-12-01 00:00:00
13,uae,DISA00000008UAE,M H Enterprise,20101971,BEST FOODS PT-S PENNE,10,10,2017-12-07 00:00:00
13,uae,DISA00000008UAE,M H Enterprise,20101971,BEST FOODS PT-S PENNE,70,70,2017-12-14 00:00:00
13,uae,DISA00000008UAE,M H Enterprise,20101971,BEST FOODS PT-S PENNE,50,50,2017-12-21 00:00:00
13,uae,DISA00000008UAE,M H Enterprise,20101997,BEST FOODS ELBOW MACARONI 2 x 2.5KG,50,50,2017-12-01 00:00:00
13,uae,DISA00000008UAE,M H Enterprise,20101997,BEST FOODS ELBOW MACARONI 2 x 2.5KG,70,70,2017-12-07 00:00:00
13,uae,DISA00000008UAE,M H Enterprise,20101997,BEST FOODS ELBOW MACARONI 2 x 2.5KG,10,10,2017-12-14 00:00:00
13,uae,DISA00000008UAE,M H Enterprise,20101997,BEST FOODS ELBOW MACARONI 2 x 2.5KG,25,25,2017-12-21 00:00:00
13,uae,DISA00000008UAE,M H Enterprise,20102326,BESTFOODS DARK CHOCCHIP,25,25,2017-12-01 00:00:00
13,uae,DISA00000008UAE,M H Enterprise,20102326,BESTFOODS DARK CHOCCHIP,10,10,2017-12-07 00:00:00
13,uae,DISA00000008UAE,M H Enterprise,20102326,BESTFOODS DARK CHOCCHIP,70,70,2017-12-14 00:00:00
13,uae,DISA00000008UAE,M H Enterprise,20102326,BESTFOODS DARK CHOCCHIP,50,50,2017-12-21 00:00:00
