country_id,country,armstrong_2_distributors_id,armstrong_2_distributors_name,sku_number,sku_description,invoice_qty,invoice_value,invoice_date
!@#!@#,uae,DISA00000008UAE,TEST,67003121,Knorr Beef Broth Base with free apron,43,35,12/1/2017 0:00
13,uae,DISA00000008UAE,TEST,67003121,Knorr Beef Broth Base with free apron,18,40,12/7/2017 0:00
13,uae,DISA00000008UAE,TEST,67003121,Knorr Beef Broth Base with free apron,75,59,asdfasdfasdf
13,uae,DISA00000008UAE,TEST,67003121,Knorr Beef Broth Base with free apron,63,61,12/21/2017 0:00
13,uae,DISA00000008UAE,TEST,67003123,Knorr Chicken Broth Base with free apron,100,11,12/1/2017 0:00
13,uae,DISA00000008UAE,TEST,67003123,Knorr Chicken Broth Base with free apron,26,64,12/7/2017 0:00
13,uae,DISA00000008UAE,TEST,67003123,Knorr Chicken Broth Base with free apron,88,45,12/14/2017 0:00
13,uae,DISA00000008UAE,TEST,67003123,Knorr Chicken Broth Base with free apron,2,33,12/21/2017 0:00
13,uae,DISA00000008UAE,TEST,67003117,Knorr Pork Broth Base with free apron,84,1,12/1/2017 0:00
13,uae,DISA00000008UAE,TEST,67003117,Knorr Pork Broth Base with free apron,15,27,12/7/2017 0:00
13,uae,DISA00000008UAE,TEST,67003117,Knorr Pork Broth Base with free apron,11,1,12/14/2017 0:00
13,uae,DISA00000008UAE,TEST,67003117,Knorr Pork Broth Base with free apron,40,1,12/21/2017 0:00
13,uae,DISA00000008UAE,TEST,67003119,Knorr Sinigang Broth with free apron,50,67,12/1/2017 0:00
13,uae,DISA00000008UAE,TEST,67003119,Knorr Sinigang Broth with free apron,89,37,12/7/2017 0:00
13,uae,DISA00000008UAE,TEST,67003119,Knorr Sinigang Broth with free apron,68,3,12/14/2017 0:00
13,uae,DISA00000008UAE,TEST,67003119,Knorr Sinigang Broth with free apron,62,86,12/21/2017 0:00
13,uae,DISA00000008UAE,TEST,20082318,300 BUAVITA ORANGE MANDARIN,55,66,12/1/2017 0:00
13,uae,DISA00000008UAE,TEST,20082318,300 BUAVITA ORANGE MANDARIN,74,43,12/7/2017 0:00
13,uae,DISA00000008UAE,TEST,20082318,300 BUAVITA ORANGE MANDARIN,7,22,12/14/2017 0:00
13,uae,DISA00000008UAE,TEST,20082318,300 BUAVITA ORANGE MANDARIN,16,75,12/21/2017 0:00
13,uae,DISA00000008UAE,TEST,20081865,250 BUAVITA ORANGE,10,86,12/1/2017 0:00
13,uae,DISA00000008UAE,TEST,20081865,250 BUAVITA ORANGE,6,93,12/7/2017 0:00
13,uae,DISA00000008UAE,TEST,20081865,250 BUAVITA ORANGE,34,16,12/14/2017 0:00
13,uae,DISA00000008UAE,TEST,20081865,250 BUAVITA ORANGE,97,20,12/21/2017 0:00
13,uae,DISA00000008UAE,TEST,20081902,BUAVITA APPLE,6,49,12/1/2017 0:00
13,uae,DISA00000008UAE,TEST,20081902,BUAVITA APPLE,48,95,12/7/2017 0:00
13,uae,DISA00000008UAE,TEST,20081902,BUAVITA APPLE,68,73,12/14/2017 0:00
13,uae,DISA00000008UAE,TEST,20081902,BUAVITA APPLE,45,60,12/21/2017 0:00
13,uae,DISA00000008UAE,TEST,20082312,BUAVITA APPLE,21,3,12/1/2017 0:00
13,uae,DISA00000008UAE,TEST,20082312,BUAVITA APPLE,70,43,12/7/2017 0:00
13,uae,DISA00000008UAE,TEST,20082312,BUAVITA APPLE,77,30,12/14/2017 0:00
