table,key,customer_id,wholesaler_id,sql,roweffect
call_records2017-03-22 15:14:20,armstrong_2_call_records_id,WHSA1268TW,OPDA9601TW,UPDATE `call_records` SET `armstrong_2_customers_id` = 'WHSA1268TW' WHERE `armstrong_2_call_records_id` = 'CALA00001441TW',61
call_records2017-03-22 15:14:20,armstrong_2_call_records_id,WHSA1268TW,OPDA9601TW,UPDATE `call_records` SET `armstrong_2_customers_id` = 'WHSA1268TW' WHERE `armstrong_2_call_records_id` = 'CALA00004118TW',61
call_records2017-03-22 15:14:20,armstrong_2_call_records_id,WHSA1268TW,OPDA9601TW,UPDATE `call_records` SET `armstrong_2_customers_id` = 'WHSA1268TW' WHERE `armstrong_2_call_records_id` = 'CALA00004863TW',61
call_records2017-03-22 15:14:20,armstrong_2_call_records_id,WHSA1268TW,OPDA9601TW,UPDATE `call_records` SET `armstrong_2_customers_id` = 'WHSA1268TW' WHERE `armstrong_2_call_records_id` = 'CALA00008107TW',61
call_records2017-03-22 15:14:20,armstrong_2_call_records_id,WHSA1268TW,OPDA9601TW,UPDATE `call_records` SET `armstrong_2_customers_id` = 'WHSA1268TW' WHERE `armstrong_2_call_records_id` = 'CALA00009052TW',61
call_records2017-03-22 15:14:20,armstrong_2_call_records_id,WHSA1268TW,OPDA9601TW,UPDATE `call_records` SET `armstrong_2_customers_id` = 'WHSA1268TW' WHERE `armstrong_2_call_records_id` = 'CALA00010353TW',61
call_records2017-03-22 15:14:20,armstrong_2_call_records_id,WHSA1268TW,OPDA9601TW,UPDATE `call_records` SET `armstrong_2_customers_id` = 'WHSA1268TW' WHERE `armstrong_2_call_records_id` = 'CALA00011787TW',61
call_records2017-03-22 15:14:20,armstrong_2_call_records_id,WHSA1268TW,OPDA9601TW,UPDATE `call_records` SET `armstrong_2_customers_id` = 'WHSA1268TW' WHERE `armstrong_2_call_records_id` = 'CALA00013619TW',61
call_records2017-03-22 15:14:20,armstrong_2_call_records_id,WHSA1268TW,OPDA9601TW,UPDATE `call_records` SET `armstrong_2_customers_id` = 'WHSA1268TW' WHERE `armstrong_2_call_records_id` = 'CALA00013972TW',61
call_records2017-03-22 15:14:20,armstrong_2_call_records_id,WHSA1268TW,OPDA9601TW,UPDATE `call_records` SET `armstrong_2_customers_id` = 'WHSA1268TW' WHERE `armstrong_2_call_records_id` = 'CALA00014665TW',61
call_records2017-03-22 15:14:20,armstrong_2_call_records_id,WHSA1268TW,OPDA9601TW,UPDATE `call_records` SET `armstrong_2_customers_id` = 'WHSA1268TW' WHERE `armstrong_2_call_records_id` = 'CALA00016148TW',61
call_records2017-03-22 15:14:20,armstrong_2_call_records_id,WHSA1268TW,OPDA9601TW,UPDATE `call_records` SET `armstrong_2_customers_id` = 'WHSA1268TW' WHERE `armstrong_2_call_records_id` = 'CALA00018149TW',61
call_records2017-03-22 15:14:20,armstrong_2_call_records_id,WHSA1268TW,OPDA9601TW,UPDATE `call_records` SET `armstrong_2_customers_id` = 'WHSA1268TW' WHERE `armstrong_2_call_records_id` = 'CALA00019219TW',61
call_records2017-03-22 15:14:20,armstrong_2_call_records_id,WHSA1268TW,OPDA9601TW,UPDATE `call_records` SET `armstrong_2_customers_id` = 'WHSA1268TW' WHERE `armstrong_2_call_records_id` = 'CALA00020532TW',61
call_records2017-03-22 15:14:20,armstrong_2_call_records_id,WHSA1268TW,OPDA9601TW,UPDATE `call_records` SET `armstrong_2_customers_id` = 'WHSA1268TW' WHERE `armstrong_2_call_records_id` = 'CALA00021410TW',61
call_records2017-03-22 15:14:20,armstrong_2_call_records_id,WHSA1268TW,OPDA9601TW,UPDATE `call_records` SET `armstrong_2_customers_id` = 'WHSA1268TW' WHERE `armstrong_2_call_records_id` = 'CALA00023208TW',61
call_records2017-03-22 15:14:20,armstrong_2_call_records_id,WHSA1268TW,OPDA9601TW,UPDATE `call_records` SET `armstrong_2_customers_id` = 'WHSA1268TW' WHERE `armstrong_2_call_records_id` = 'CALA00025117TW',61
call_records2017-03-22 15:14:20,armstrong_2_call_records_id,WHSA1268TW,OPDA9601TW,UPDATE `call_records` SET `armstrong_2_customers_id` = 'WHSA1268TW' WHERE `armstrong_2_call_records_id` = 'CALA00025903TW',61
call_records2017-03-22 15:14:20,armstrong_2_call_records_id,WHSA1268TW,OPDA9601TW,UPDATE `call_records` SET `armstrong_2_customers_id` = 'WHSA1268TW' WHERE `armstrong_2_call_records_id` = 'CALA00027242TW',61
call_records2017-03-22 15:14:20,armstrong_2_call_records_id,WHSA1268TW,OPDA9601TW,UPDATE `call_records` SET `armstrong_2_customers_id` = 'WHSA1268TW' WHERE `armstrong_2_call_records_id` = 'CALA00027601TW',61
call_records2017-03-22 15:14:20,armstrong_2_call_records_id,WHSA1268TW,OPDA9601TW,UPDATE `call_records` SET `armstrong_2_customers_id` = 'WHSA1268TW' WHERE `armstrong_2_call_records_id` = 'CALA00029121TW',61
call_records2017-03-22 15:14:20,armstrong_2_call_records_id,WHSA1268TW,OPDA9601TW,UPDATE `call_records` SET `armstrong_2_customers_id` = 'WHSA1268TW' WHERE `armstrong_2_call_records_id` = 'CALA00029685TW',61
call_records2017-03-22 15:14:20,armstrong_2_call_records_id,WHSA1268TW,OPDA9601TW,UPDATE `call_records` SET `armstrong_2_customers_id` = 'WHSA1268TW' WHERE `armstrong_2_call_records_id` = 'CALA00030682TW',61
call_records2017-03-22 15:14:20,armstrong_2_call_records_id,WHSA1268TW,OPDA9601TW,UPDATE `call_records` SET `armstrong_2_customers_id` = 'WHSA1268TW' WHERE `armstrong_2_call_records_id` = 'CALA00031442TW',61
call_records2017-03-22 15:14:20,armstrong_2_call_records_id,WHSA1268TW,OPDA9601TW,UPDATE `call_records` SET `armstrong_2_customers_id` = 'WHSA1268TW' WHERE `armstrong_2_call_records_id` = 'CALA00032665TW',61
call_records2017-03-22 15:14:20,armstrong_2_call_records_id,WHSA1268TW,OPDA9601TW,UPDATE `call_records` SET `armstrong_2_customers_id` = 'WHSA1268TW' WHERE `armstrong_2_call_records_id` = 'CALA00034717TW',61
call_records2017-03-22 15:14:20,armstrong_2_call_records_id,WHSA1268TW,OPDA9601TW,UPDATE `call_records` SET `armstrong_2_customers_id` = 'WHSA1268TW' WHERE `armstrong_2_call_records_id` = 'CALA00034939TW',61
call_records2017-03-22 15:14:20,armstrong_2_call_records_id,WHSA1268TW,OPDA9601TW,UPDATE `call_records` SET `armstrong_2_customers_id` = 'WHSA1268TW' WHERE `armstrong_2_call_records_id` = 'CALA00036015TW',61
call_records2017-03-22 15:14:20,armstrong_2_call_records_id,WHSA1268TW,OPDA9601TW,UPDATE `call_records` SET `armstrong_2_customers_id` = 'WHSA1268TW' WHERE `armstrong_2_call_records_id` = 'CALA00037712TW',61
call_records2017-03-22 15:14:20,armstrong_2_call_records_id,WHSA1268TW,OPDA9601TW,UPDATE `call_records` SET `armstrong_2_customers_id` = 'WHSA1268TW' WHERE `armstrong_2_call_records_id` = 'CALA00038962TW',61
call_records2017-03-22 15:14:20,armstrong_2_call_records_id,WHSA1268TW,OPDA9601TW,UPDATE `call_records` SET `armstrong_2_customers_id` = 'WHSA1268TW' WHERE `armstrong_2_call_records_id` = 'CALA00040769TW',61
call_records2017-03-22 15:14:20,armstrong_2_call_records_id,WHSA1268TW,OPDA9601TW,UPDATE `call_records` SET `armstrong_2_customers_id` = 'WHSA1268TW' WHERE `armstrong_2_call_records_id` = 'CALA00041814TW',61
call_records2017-03-22 15:14:20,armstrong_2_call_records_id,WHSA1268TW,OPDA9601TW,UPDATE `call_records` SET `armstrong_2_customers_id` = 'WHSA1268TW' WHERE `armstrong_2_call_records_id` = 'CALA00042276TW',61
call_records2017-03-22 15:14:20,armstrong_2_call_records_id,WHSA1268TW,OPDA9601TW,UPDATE `call_records` SET `armstrong_2_customers_id` = 'WHSA1268TW' WHERE `armstrong_2_call_records_id` = 'CALA00043678TW',61
call_records2017-03-22 15:14:20,armstrong_2_call_records_id,WHSA1268TW,OPDA9601TW,UPDATE `call_records` SET `armstrong_2_customers_id` = 'WHSA1268TW' WHERE `armstrong_2_call_records_id` = 'CALA00045025TW',61
call_records2017-03-22 15:14:20,armstrong_2_call_records_id,WHSA1268TW,OPDA9601TW,UPDATE `call_records` SET `armstrong_2_customers_id` = 'WHSA1268TW' WHERE `armstrong_2_call_records_id` = 'CALA00045241TW',61
call_records2017-03-22 15:14:20,armstrong_2_call_records_id,WHSA1268TW,OPDA9601TW,UPDATE `call_records` SET `armstrong_2_customers_id` = 'WHSA1268TW' WHERE `armstrong_2_call_records_id` = 'CALA00045859TW',61
call_records2017-03-22 15:14:20,armstrong_2_call_records_id,WHSA1268TW,OPDA9601TW,UPDATE `call_records` SET `armstrong_2_customers_id` = 'WHSA1268TW' WHERE `armstrong_2_call_records_id` = 'CALA00048033TW',61
call_records2017-03-22 15:14:20,armstrong_2_call_records_id,WHSA1268TW,OPDA9601TW,UPDATE `call_records` SET `armstrong_2_customers_id` = 'WHSA1268TW' WHERE `armstrong_2_call_records_id` = 'CALA00048677TW',61
call_records2017-03-22 15:14:20,armstrong_2_call_records_id,WHSA1268TW,OPDA9601TW,UPDATE `call_records` SET `armstrong_2_customers_id` = 'WHSA1268TW' WHERE `armstrong_2_call_records_id` = 'CALA00050260TW',61
call_records2017-03-22 15:14:20,armstrong_2_call_records_id,WHSA1268TW,OPDA9601TW,UPDATE `call_records` SET `armstrong_2_customers_id` = 'WHSA1268TW' WHERE `armstrong_2_call_records_id` = 'CALA00052355TW',61
call_records2017-03-22 15:14:20,armstrong_2_call_records_id,WHSA1268TW,OPDA9601TW,UPDATE `call_records` SET `armstrong_2_customers_id` = 'WHSA1268TW' WHERE `armstrong_2_call_records_id` = 'CALA00054647TW',61
call_records2017-03-22 15:14:20,armstrong_2_call_records_id,WHSA1268TW,OPDA9601TW,UPDATE `call_records` SET `armstrong_2_customers_id` = 'WHSA1268TW' WHERE `armstrong_2_call_records_id` = 'CALA00054837TW',61
call_records2017-03-22 15:14:20,armstrong_2_call_records_id,WHSA1268TW,OPDA9601TW,UPDATE `call_records` SET `armstrong_2_customers_id` = 'WHSA1268TW' WHERE `armstrong_2_call_records_id` = 'CALA00057951TW',61
call_records2017-03-22 15:14:20,armstrong_2_call_records_id,WHSA1268TW,OPDA9601TW,UPDATE `call_records` SET `armstrong_2_customers_id` = 'WHSA1268TW' WHERE `armstrong_2_call_records_id` = 'CALA00058336TW',61
call_records2017-03-22 15:14:20,armstrong_2_call_records_id,WHSA1268TW,OPDA9601TW,UPDATE `call_records` SET `armstrong_2_customers_id` = 'WHSA1268TW' WHERE `armstrong_2_call_records_id` = 'CALA00058957TW',61
call_records2017-03-22 15:14:20,armstrong_2_call_records_id,WHSA1268TW,OPDA9601TW,UPDATE `call_records` SET `armstrong_2_customers_id` = 'WHSA1268TW' WHERE `armstrong_2_call_records_id` = 'CALA00060425TW',61
call_records2017-03-22 15:14:20,armstrong_2_call_records_id,WHSA1268TW,OPDA9601TW,UPDATE `call_records` SET `armstrong_2_customers_id` = 'WHSA1268TW' WHERE `armstrong_2_call_records_id` = 'CALA00061467TW',61
call_records2017-03-22 15:14:20,armstrong_2_call_records_id,WHSA1268TW,OPDA9601TW,UPDATE `call_records` SET `armstrong_2_customers_id` = 'WHSA1268TW' WHERE `armstrong_2_call_records_id` = 'CALA00063052TW',61
call_records2017-03-22 15:14:20,armstrong_2_call_records_id,WHSA1268TW,OPDA9601TW,UPDATE `call_records` SET `armstrong_2_customers_id` = 'WHSA1268TW' WHERE `armstrong_2_call_records_id` = 'CALA00064077TW',61
call_records2017-03-22 15:14:20,armstrong_2_call_records_id,WHSA1268TW,OPDA9601TW,UPDATE `call_records` SET `armstrong_2_customers_id` = 'WHSA1268TW' WHERE `armstrong_2_call_records_id` = 'CALA00064495TW',61
call_records2017-03-22 15:14:20,armstrong_2_call_records_id,WHSA1268TW,OPDA9601TW,UPDATE `call_records` SET `armstrong_2_customers_id` = 'WHSA1268TW' WHERE `armstrong_2_call_records_id` = 'CALA00065713TW',61
call_records2017-03-22 15:14:20,armstrong_2_call_records_id,WHSA1268TW,OPDA9601TW,UPDATE `call_records` SET `armstrong_2_customers_id` = 'WHSA1268TW' WHERE `armstrong_2_call_records_id` = 'CALA00066346TW',61
call_records2017-03-22 15:14:20,armstrong_2_call_records_id,WHSA1268TW,OPDA9601TW,UPDATE `call_records` SET `armstrong_2_customers_id` = 'WHSA1268TW' WHERE `armstrong_2_call_records_id` = 'CALA00066667TW',61
call_records2017-03-22 15:14:20,armstrong_2_call_records_id,WHSA1268TW,OPDA9601TW,UPDATE `call_records` SET `armstrong_2_customers_id` = 'WHSA1268TW' WHERE `armstrong_2_call_records_id` = 'CALA00068739TW',61
call_records2017-03-22 15:14:20,armstrong_2_call_records_id,WHSA1268TW,OPDA9601TW,UPDATE `call_records` SET `armstrong_2_customers_id` = 'WHSA1268TW' WHERE `armstrong_2_call_records_id` = 'CALA00070832TW',61
call_records2017-03-22 15:14:20,armstrong_2_call_records_id,WHSA1268TW,OPDA9601TW,UPDATE `call_records` SET `armstrong_2_customers_id` = 'WHSA1268TW' WHERE `armstrong_2_call_records_id` = 'CALA00072416TW',61
call_records2017-03-22 15:14:20,armstrong_2_call_records_id,WHSA1268TW,OPDA9601TW,UPDATE `call_records` SET `armstrong_2_customers_id` = 'WHSA1268TW' WHERE `armstrong_2_call_records_id` = 'CALA00074591TW',61
call_records2017-03-22 15:14:20,armstrong_2_call_records_id,WHSA1268TW,OPDA9601TW,UPDATE `call_records` SET `armstrong_2_customers_id` = 'WHSA1268TW' WHERE `armstrong_2_call_records_id` = 'CALA00075712TW',61
call_records2017-03-22 15:14:20,armstrong_2_call_records_id,WHSA1268TW,OPDA9601TW,UPDATE `call_records` SET `armstrong_2_customers_id` = 'WHSA1268TW' WHERE `armstrong_2_call_records_id` = 'CALA00076231TW',61
call_records2017-03-22 15:14:20,armstrong_2_call_records_id,WHSA1268TW,OPDA9601TW,UPDATE `call_records` SET `armstrong_2_customers_id` = 'WHSA1268TW' WHERE `armstrong_2_call_records_id` = 'CALA00077981TW',61
call_records2017-03-22 15:14:20,armstrong_2_call_records_id,WHSA0022TW,OPDA7956TW,UPDATE `call_records` SET `armstrong_2_customers_id` = 'WHSA0022TW' WHERE `armstrong_2_call_records_id` = 'CALA00060641TW',3
call_records2017-03-22 15:14:20,armstrong_2_call_records_id,WHSA0022TW,OPDA7956TW,UPDATE `call_records` SET `armstrong_2_customers_id` = 'WHSA0022TW' WHERE `armstrong_2_call_records_id` = 'CALA00065210TW',3
call_records2017-03-22 15:14:20,armstrong_2_call_records_id,WHSA0022TW,OPDA7956TW,UPDATE `call_records` SET `armstrong_2_customers_id` = 'WHSA0022TW' WHERE `armstrong_2_call_records_id` = 'CALA00076625TW',3