"Date","Customer","Whosaler","Table","Id","SQL","Column effect","Status"
"2017-05-04 11:12:18","OPDA9153TW","WHSA1219TW","call_records_summary","348360","UPDATE `call_records_summary` SET `last_updated` = '2017-05-04 11:12:18', `armstrong_2_customers_id` = 'WHSA1219TW' WHERE `id` = '348360'","1","Success"
"2017-05-04 11:12:18","OPDA9153TW","WHSA1219TW","call_records_summary","372447","UPDATE `call_records_summary` SET `last_updated` = '2017-05-04 11:12:18', `armstrong_2_customers_id` = 'WHSA1219TW' WHERE `id` = '372447'","1","Success"
"2017-05-04 11:12:18","OPDA9153TW","WHSA1219TW","call_records_summary","374549","UPDATE `call_records_summary` SET `last_updated` = '2017-05-04 11:12:18', `armstrong_2_customers_id` = 'WHSA1219TW' WHERE `id` = '374549'","1","Success"
"2017-05-04 11:12:18","OPDA9153TW","WHSA1219TW","call_records_summary","406775","UPDATE `call_records_summary` SET `last_updated` = '2017-05-04 11:12:18', `armstrong_2_customers_id` = 'WHSA1219TW' WHERE `id` = '406775'","1","Success"
"2017-05-04 11:12:18","OPDA9153TW","WHSA1219TW","call_records_summary","417140","UPDATE `call_records_summary` SET `last_updated` = '2017-05-04 11:12:18', `armstrong_2_customers_id` = 'WHSA1219TW' WHERE `id` = '417140'","1","Success"
"2017-05-04 11:12:18","OPDA9153TW","WHSA1219TW","call_records_summary","417142","UPDATE `call_records_summary` SET `last_updated` = '2017-05-04 11:12:18', `armstrong_2_customers_id` = 'WHSA1219TW' WHERE `id` = '417142'","1","Success"
"2017-05-04 11:12:18","OPDA9153TW","WHSA1219TW","call_records_summary","430256","UPDATE `call_records_summary` SET `last_updated` = '2017-05-04 11:12:18', `armstrong_2_customers_id` = 'WHSA1219TW' WHERE `id` = '430256'","1","Success"
"2017-05-04 11:12:18","OPDA9153TW","WHSA1219TW","call_records_summary","446669","UPDATE `call_records_summary` SET `last_updated` = '2017-05-04 11:12:18', `armstrong_2_customers_id` = 'WHSA1219TW' WHERE `id` = '446669'","1","Success"
"2017-05-04 11:12:18","OPDA9153TW","WHSA1219TW","call_records_summary","499769","UPDATE `call_records_summary` SET `last_updated` = '2017-05-04 11:12:18', `armstrong_2_customers_id` = 'WHSA1219TW' WHERE `id` = '499769'","1","Success"
"2017-05-04 11:12:18","OPDA9153TW","WHSA1219TW","call_records_summary","554723","UPDATE `call_records_summary` SET `last_updated` = '2017-05-04 11:12:18', `armstrong_2_customers_id` = 'WHSA1219TW' WHERE `id` = '554723'","1","Success"
"2017-05-04 11:12:18","OPDA9153TW","WHSA1219TW","call_records_summary","575207","UPDATE `call_records_summary` SET `last_updated` = '2017-05-04 11:12:18', `armstrong_2_customers_id` = 'WHSA1219TW' WHERE `id` = '575207'","1","Success"