"Date","Customer","Whosaler","Table","Id","SQL","Column effect","Status"
"2017-05-04 11:13:04","OPDA9153TW","WHSA1219TW","pantry_check_details","2354974","UPDATE `pantry_check_details` SET `last_updated` = '2017-05-04 11:13:04', `armstrong_2_customers_id` = 'WHSA1219TW', `armstrong_2_customers_name` = '鑫豐泰' WHERE `id` = '2354974'","1","Success"
"2017-05-04 11:13:04","OPDA9153TW","WHSA1219TW","pantry_check_details","2354975","UPDATE `pantry_check_details` SET `last_updated` = '2017-05-04 11:13:04', `armstrong_2_customers_id` = 'WHSA1219TW', `armstrong_2_customers_name` = '鑫豐泰' WHERE `id` = '2354975'","1","Success"
"2017-05-04 11:13:04","OPDA9153TW","WHSA1219TW","pantry_check_details","2354976","UPDATE `pantry_check_details` SET `last_updated` = '2017-05-04 11:13:04', `armstrong_2_customers_id` = 'WHSA1219TW', `armstrong_2_customers_name` = '鑫豐泰' WHERE `id` = '2354976'","1","Success"
"2017-05-04 11:13:04","OPDA9153TW","WHSA1219TW","pantry_check_details","2354977","UPDATE `pantry_check_details` SET `last_updated` = '2017-05-04 11:13:04', `armstrong_2_customers_id` = 'WHSA1219TW', `armstrong_2_customers_name` = '鑫豐泰' WHERE `id` = '2354977'","1","Success"
"2017-05-04 11:13:04","OPDA9153TW","WHSA1219TW","pantry_check_details","2354978","UPDATE `pantry_check_details` SET `last_updated` = '2017-05-04 11:13:04', `armstrong_2_customers_id` = 'WHSA1219TW', `armstrong_2_customers_name` = '鑫豐泰' WHERE `id` = '2354978'","1","Success"
"2017-05-04 11:13:04","OPDA9153TW","WHSA1219TW","pantry_check_details","2354979","UPDATE `pantry_check_details` SET `last_updated` = '2017-05-04 11:13:04', `armstrong_2_customers_id` = 'WHSA1219TW', `armstrong_2_customers_name` = '鑫豐泰' WHERE `id` = '2354979'","1","Success"
"2017-05-04 11:13:04","OPDA9153TW","WHSA1219TW","pantry_check_details","2354980","UPDATE `pantry_check_details` SET `last_updated` = '2017-05-04 11:13:04', `armstrong_2_customers_id` = 'WHSA1219TW', `armstrong_2_customers_name` = '鑫豐泰' WHERE `id` = '2354980'","1","Success"
"2017-05-04 11:13:04","OPDA9153TW","WHSA1219TW","pantry_check_details","2354981","UPDATE `pantry_check_details` SET `last_updated` = '2017-05-04 11:13:04', `armstrong_2_customers_id` = 'WHSA1219TW', `armstrong_2_customers_name` = '鑫豐泰' WHERE `id` = '2354981'","1","Success"
"2017-05-04 11:13:04","OPDA9153TW","WHSA1219TW","pantry_check_details","2354982","UPDATE `pantry_check_details` SET `last_updated` = '2017-05-04 11:13:04', `armstrong_2_customers_id` = 'WHSA1219TW', `armstrong_2_customers_name` = '鑫豐泰' WHERE `id` = '2354982'","1","Success"
"2017-05-04 11:13:04","OPDA9153TW","WHSA1219TW","pantry_check_details","2481581","UPDATE `pantry_check_details` SET `last_updated` = '2017-05-04 11:13:04', `armstrong_2_customers_id` = 'WHSA1219TW', `armstrong_2_customers_name` = '鑫豐泰' WHERE `id` = '2481581'","1","Success"
"2017-05-04 11:13:04","OPDA9153TW","WHSA1219TW","pantry_check_details","2481582","UPDATE `pantry_check_details` SET `last_updated` = '2017-05-04 11:13:04', `armstrong_2_customers_id` = 'WHSA1219TW', `armstrong_2_customers_name` = '鑫豐泰' WHERE `id` = '2481582'","1","Success"
"2017-05-04 11:13:04","OPDA9153TW","WHSA1219TW","pantry_check_details","2481583","UPDATE `pantry_check_details` SET `last_updated` = '2017-05-04 11:13:04', `armstrong_2_customers_id` = 'WHSA1219TW', `armstrong_2_customers_name` = '鑫豐泰' WHERE `id` = '2481583'","1","Success"
"2017-05-04 11:13:04","OPDA9153TW","WHSA1219TW","pantry_check_details","2481584","UPDATE `pantry_check_details` SET `last_updated` = '2017-05-04 11:13:04', `armstrong_2_customers_id` = 'WHSA1219TW', `armstrong_2_customers_name` = '鑫豐泰' WHERE `id` = '2481584'","1","Success"
"2017-05-04 11:13:04","OPDA9153TW","WHSA1219TW","pantry_check_details","2481585","UPDATE `pantry_check_details` SET `last_updated` = '2017-05-04 11:13:04', `armstrong_2_customers_id` = 'WHSA1219TW', `armstrong_2_customers_name` = '鑫豐泰' WHERE `id` = '2481585'","1","Success"
"2017-05-04 11:13:04","OPDA9153TW","WHSA1219TW","pantry_check_details","2481586","UPDATE `pantry_check_details` SET `last_updated` = '2017-05-04 11:13:04', `armstrong_2_customers_id` = 'WHSA1219TW', `armstrong_2_customers_name` = '鑫豐泰' WHERE `id` = '2481586'","1","Success"
"2017-05-04 11:13:04","OPDA9153TW","WHSA1219TW","pantry_check_details","2481587","UPDATE `pantry_check_details` SET `last_updated` = '2017-05-04 11:13:04', `armstrong_2_customers_id` = 'WHSA1219TW', `armstrong_2_customers_name` = '鑫豐泰' WHERE `id` = '2481587'","1","Success"
"2017-05-04 11:13:04","OPDA9153TW","WHSA1219TW","pantry_check_details","2481588","UPDATE `pantry_check_details` SET `last_updated` = '2017-05-04 11:13:04', `armstrong_2_customers_id` = 'WHSA1219TW', `armstrong_2_customers_name` = '鑫豐泰' WHERE `id` = '2481588'","1","Success"
"2017-05-04 11:13:04","OPDA9153TW","WHSA1219TW","pantry_check_details","2481589","UPDATE `pantry_check_details` SET `last_updated` = '2017-05-04 11:13:04', `armstrong_2_customers_id` = 'WHSA1219TW', `armstrong_2_customers_name` = '鑫豐泰' WHERE `id` = '2481589'","1","Success"
"2017-05-04 11:13:04","OPDA9153TW","WHSA1219TW","pantry_check_details","2493196","UPDATE `pantry_check_details` SET `last_updated` = '2017-05-04 11:13:04', `armstrong_2_customers_id` = 'WHSA1219TW', `armstrong_2_customers_name` = '鑫豐泰' WHERE `id` = '2493196'","1","Success"
"2017-05-04 11:13:04","OPDA9153TW","WHSA1219TW","pantry_check_details","2493197","UPDATE `pantry_check_details` SET `last_updated` = '2017-05-04 11:13:04', `armstrong_2_customers_id` = 'WHSA1219TW', `armstrong_2_customers_name` = '鑫豐泰' WHERE `id` = '2493197'","1","Success"
"2017-05-04 11:13:04","OPDA9153TW","WHSA1219TW","pantry_check_details","2493198","UPDATE `pantry_check_details` SET `last_updated` = '2017-05-04 11:13:04', `armstrong_2_customers_id` = 'WHSA1219TW', `armstrong_2_customers_name` = '鑫豐泰' WHERE `id` = '2493198'","1","Success"
"2017-05-04 11:13:04","OPDA9153TW","WHSA1219TW","pantry_check_details","2493199","UPDATE `pantry_check_details` SET `last_updated` = '2017-05-04 11:13:04', `armstrong_2_customers_id` = 'WHSA1219TW', `armstrong_2_customers_name` = '鑫豐泰' WHERE `id` = '2493199'","1","Success"
"2017-05-04 11:13:04","OPDA9153TW","WHSA1219TW","pantry_check_details","2493200","UPDATE `pantry_check_details` SET `last_updated` = '2017-05-04 11:13:04', `armstrong_2_customers_id` = 'WHSA1219TW', `armstrong_2_customers_name` = '鑫豐泰' WHERE `id` = '2493200'","1","Success"
"2017-05-04 11:13:04","OPDA9153TW","WHSA1219TW","pantry_check_details","2493201","UPDATE `pantry_check_details` SET `last_updated` = '2017-05-04 11:13:04', `armstrong_2_customers_id` = 'WHSA1219TW', `armstrong_2_customers_name` = '鑫豐泰' WHERE `id` = '2493201'","1","Success"
"2017-05-04 11:13:04","OPDA9153TW","WHSA1219TW","pantry_check_details","2493202","UPDATE `pantry_check_details` SET `last_updated` = '2017-05-04 11:13:04', `armstrong_2_customers_id` = 'WHSA1219TW', `armstrong_2_customers_name` = '鑫豐泰' WHERE `id` = '2493202'","1","Success"
"2017-05-04 11:13:04","OPDA9153TW","WHSA1219TW","pantry_check_details","2493203","UPDATE `pantry_check_details` SET `last_updated` = '2017-05-04 11:13:04', `armstrong_2_customers_id` = 'WHSA1219TW', `armstrong_2_customers_name` = '鑫豐泰' WHERE `id` = '2493203'","1","Success"
"2017-05-04 11:13:04","OPDA9153TW","WHSA1219TW","pantry_check_details","2493204","UPDATE `pantry_check_details` SET `last_updated` = '2017-05-04 11:13:04', `armstrong_2_customers_id` = 'WHSA1219TW', `armstrong_2_customers_name` = '鑫豐泰' WHERE `id` = '2493204'","1","Success"
"2017-05-04 11:13:04","OPDA9153TW","WHSA1219TW","pantry_check_details","2657458","UPDATE `pantry_check_details` SET `last_updated` = '2017-05-04 11:13:04', `armstrong_2_customers_id` = 'WHSA1219TW', `armstrong_2_customers_name` = '鑫豐泰' WHERE `id` = '2657458'","1","Success"
"2017-05-04 11:13:04","OPDA9153TW","WHSA1219TW","pantry_check_details","2657459","UPDATE `pantry_check_details` SET `last_updated` = '2017-05-04 11:13:04', `armstrong_2_customers_id` = 'WHSA1219TW', `armstrong_2_customers_name` = '鑫豐泰' WHERE `id` = '2657459'","1","Success"
"2017-05-04 11:13:04","OPDA9153TW","WHSA1219TW","pantry_check_details","2657460","UPDATE `pantry_check_details` SET `last_updated` = '2017-05-04 11:13:04', `armstrong_2_customers_id` = 'WHSA1219TW', `armstrong_2_customers_name` = '鑫豐泰' WHERE `id` = '2657460'","1","Success"
"2017-05-04 11:13:04","OPDA9153TW","WHSA1219TW","pantry_check_details","2657461","UPDATE `pantry_check_details` SET `last_updated` = '2017-05-04 11:13:04', `armstrong_2_customers_id` = 'WHSA1219TW', `armstrong_2_customers_name` = '鑫豐泰' WHERE `id` = '2657461'","1","Success"
"2017-05-04 11:13:04","OPDA9153TW","WHSA1219TW","pantry_check_details","2657462","UPDATE `pantry_check_details` SET `last_updated` = '2017-05-04 11:13:04', `armstrong_2_customers_id` = 'WHSA1219TW', `armstrong_2_customers_name` = '鑫豐泰' WHERE `id` = '2657462'","1","Success"
"2017-05-04 11:13:04","OPDA9153TW","WHSA1219TW","pantry_check_details","2657463","UPDATE `pantry_check_details` SET `last_updated` = '2017-05-04 11:13:04', `armstrong_2_customers_id` = 'WHSA1219TW', `armstrong_2_customers_name` = '鑫豐泰' WHERE `id` = '2657463'","1","Success"
"2017-05-04 11:13:04","OPDA9153TW","WHSA1219TW","pantry_check_details","2657464","UPDATE `pantry_check_details` SET `last_updated` = '2017-05-04 11:13:04', `armstrong_2_customers_id` = 'WHSA1219TW', `armstrong_2_customers_name` = '鑫豐泰' WHERE `id` = '2657464'","1","Success"
"2017-05-04 11:13:04","OPDA9153TW","WHSA1219TW","pantry_check_details","2657465","UPDATE `pantry_check_details` SET `last_updated` = '2017-05-04 11:13:04', `armstrong_2_customers_id` = 'WHSA1219TW', `armstrong_2_customers_name` = '鑫豐泰' WHERE `id` = '2657465'","1","Success"
"2017-05-04 11:13:04","OPDA9153TW","WHSA1219TW","pantry_check_details","2657466","UPDATE `pantry_check_details` SET `last_updated` = '2017-05-04 11:13:04', `armstrong_2_customers_id` = 'WHSA1219TW', `armstrong_2_customers_name` = '鑫豐泰' WHERE `id` = '2657466'","1","Success"
"2017-05-04 11:13:04","OPDA9153TW","WHSA1219TW","pantry_check_details","2712962","UPDATE `pantry_check_details` SET `last_updated` = '2017-05-04 11:13:04', `armstrong_2_customers_id` = 'WHSA1219TW', `armstrong_2_customers_name` = '鑫豐泰' WHERE `id` = '2712962'","1","Success"
"2017-05-04 11:13:04","OPDA9153TW","WHSA1219TW","pantry_check_details","2712963","UPDATE `pantry_check_details` SET `last_updated` = '2017-05-04 11:13:04', `armstrong_2_customers_id` = 'WHSA1219TW', `armstrong_2_customers_name` = '鑫豐泰' WHERE `id` = '2712963'","1","Success"
"2017-05-04 11:13:04","OPDA9153TW","WHSA1219TW","pantry_check_details","2712964","UPDATE `pantry_check_details` SET `last_updated` = '2017-05-04 11:13:04', `armstrong_2_customers_id` = 'WHSA1219TW', `armstrong_2_customers_name` = '鑫豐泰' WHERE `id` = '2712964'","1","Success"
"2017-05-04 11:13:04","OPDA9153TW","WHSA1219TW","pantry_check_details","2712965","UPDATE `pantry_check_details` SET `last_updated` = '2017-05-04 11:13:04', `armstrong_2_customers_id` = 'WHSA1219TW', `armstrong_2_customers_name` = '鑫豐泰' WHERE `id` = '2712965'","1","Success"
"2017-05-04 11:13:04","OPDA9153TW","WHSA1219TW","pantry_check_details","2712966","UPDATE `pantry_check_details` SET `last_updated` = '2017-05-04 11:13:04', `armstrong_2_customers_id` = 'WHSA1219TW', `armstrong_2_customers_name` = '鑫豐泰' WHERE `id` = '2712966'","1","Success"
"2017-05-04 11:13:04","OPDA9153TW","WHSA1219TW","pantry_check_details","2712967","UPDATE `pantry_check_details` SET `last_updated` = '2017-05-04 11:13:04', `armstrong_2_customers_id` = 'WHSA1219TW', `armstrong_2_customers_name` = '鑫豐泰' WHERE `id` = '2712967'","1","Success"
"2017-05-04 11:13:04","OPDA9153TW","WHSA1219TW","pantry_check_details","2712968","UPDATE `pantry_check_details` SET `last_updated` = '2017-05-04 11:13:04', `armstrong_2_customers_id` = 'WHSA1219TW', `armstrong_2_customers_name` = '鑫豐泰' WHERE `id` = '2712968'","1","Success"
"2017-05-04 11:13:04","OPDA9153TW","WHSA1219TW","pantry_check_details","2712969","UPDATE `pantry_check_details` SET `last_updated` = '2017-05-04 11:13:04', `armstrong_2_customers_id` = 'WHSA1219TW', `armstrong_2_customers_name` = '鑫豐泰' WHERE `id` = '2712969'","1","Success"
"2017-05-04 11:13:04","OPDA9153TW","WHSA1219TW","pantry_check_details","2712970","UPDATE `pantry_check_details` SET `last_updated` = '2017-05-04 11:13:04', `armstrong_2_customers_id` = 'WHSA1219TW', `armstrong_2_customers_name` = '鑫豐泰' WHERE `id` = '2712970'","1","Success"
"2017-05-04 11:13:04","OPDA9153TW","WHSA1219TW","pantry_check_details","2712971","UPDATE `pantry_check_details` SET `last_updated` = '2017-05-04 11:13:04', `armstrong_2_customers_id` = 'WHSA1219TW', `armstrong_2_customers_name` = '鑫豐泰' WHERE `id` = '2712971'","1","Success"
"2017-05-04 11:13:04","OPDA9153TW","WHSA1219TW","pantry_check_details","2712972","UPDATE `pantry_check_details` SET `last_updated` = '2017-05-04 11:13:04', `armstrong_2_customers_id` = 'WHSA1219TW', `armstrong_2_customers_name` = '鑫豐泰' WHERE `id` = '2712972'","1","Success"
"2017-05-04 11:13:04","OPDA9153TW","WHSA1219TW","pantry_check_details","2712973","UPDATE `pantry_check_details` SET `last_updated` = '2017-05-04 11:13:04', `armstrong_2_customers_id` = 'WHSA1219TW', `armstrong_2_customers_name` = '鑫豐泰' WHERE `id` = '2712973'","1","Success"
"2017-05-04 11:13:04","OPDA9153TW","WHSA1219TW","pantry_check_details","2712974","UPDATE `pantry_check_details` SET `last_updated` = '2017-05-04 11:13:04', `armstrong_2_customers_id` = 'WHSA1219TW', `armstrong_2_customers_name` = '鑫豐泰' WHERE `id` = '2712974'","1","Success"
"2017-05-04 11:13:04","OPDA9153TW","WHSA1219TW","pantry_check_details","2712975","UPDATE `pantry_check_details` SET `last_updated` = '2017-05-04 11:13:04', `armstrong_2_customers_id` = 'WHSA1219TW', `armstrong_2_customers_name` = '鑫豐泰' WHERE `id` = '2712975'","1","Success"
"2017-05-04 11:13:04","OPDA9153TW","WHSA1219TW","pantry_check_details","2712987","UPDATE `pantry_check_details` SET `last_updated` = '2017-05-04 11:13:04', `armstrong_2_customers_id` = 'WHSA1219TW', `armstrong_2_customers_name` = '鑫豐泰' WHERE `id` = '2712987'","1","Success"
"2017-05-04 11:13:04","OPDA9153TW","WHSA1219TW","pantry_check_details","2712988","UPDATE `pantry_check_details` SET `last_updated` = '2017-05-04 11:13:04', `armstrong_2_customers_id` = 'WHSA1219TW', `armstrong_2_customers_name` = '鑫豐泰' WHERE `id` = '2712988'","1","Success"
"2017-05-04 11:13:04","OPDA9153TW","WHSA1219TW","pantry_check_details","2712989","UPDATE `pantry_check_details` SET `last_updated` = '2017-05-04 11:13:04', `armstrong_2_customers_id` = 'WHSA1219TW', `armstrong_2_customers_name` = '鑫豐泰' WHERE `id` = '2712989'","1","Success"
"2017-05-04 11:13:04","OPDA9153TW","WHSA1219TW","pantry_check_details","2712990","UPDATE `pantry_check_details` SET `last_updated` = '2017-05-04 11:13:04', `armstrong_2_customers_id` = 'WHSA1219TW', `armstrong_2_customers_name` = '鑫豐泰' WHERE `id` = '2712990'","1","Success"
"2017-05-04 11:13:04","OPDA9153TW","WHSA1219TW","pantry_check_details","2712991","UPDATE `pantry_check_details` SET `last_updated` = '2017-05-04 11:13:04', `armstrong_2_customers_id` = 'WHSA1219TW', `armstrong_2_customers_name` = '鑫豐泰' WHERE `id` = '2712991'","1","Success"
"2017-05-04 11:13:04","OPDA9153TW","WHSA1219TW","pantry_check_details","2712992","UPDATE `pantry_check_details` SET `last_updated` = '2017-05-04 11:13:04', `armstrong_2_customers_id` = 'WHSA1219TW', `armstrong_2_customers_name` = '鑫豐泰' WHERE `id` = '2712992'","1","Success"
"2017-05-04 11:13:04","OPDA9153TW","WHSA1219TW","pantry_check_details","2712993","UPDATE `pantry_check_details` SET `last_updated` = '2017-05-04 11:13:04', `armstrong_2_customers_id` = 'WHSA1219TW', `armstrong_2_customers_name` = '鑫豐泰' WHERE `id` = '2712993'","1","Success"
"2017-05-04 11:13:04","OPDA9153TW","WHSA1219TW","pantry_check_details","2712994","UPDATE `pantry_check_details` SET `last_updated` = '2017-05-04 11:13:04', `armstrong_2_customers_id` = 'WHSA1219TW', `armstrong_2_customers_name` = '鑫豐泰' WHERE `id` = '2712994'","1","Success"
"2017-05-04 11:13:04","OPDA9153TW","WHSA1219TW","pantry_check_details","2712995","UPDATE `pantry_check_details` SET `last_updated` = '2017-05-04 11:13:04', `armstrong_2_customers_id` = 'WHSA1219TW', `armstrong_2_customers_name` = '鑫豐泰' WHERE `id` = '2712995'","1","Success"
"2017-05-04 11:13:04","OPDA9153TW","WHSA1219TW","pantry_check_details","2712996","UPDATE `pantry_check_details` SET `last_updated` = '2017-05-04 11:13:04', `armstrong_2_customers_id` = 'WHSA1219TW', `armstrong_2_customers_name` = '鑫豐泰' WHERE `id` = '2712996'","1","Success"
"2017-05-04 11:13:04","OPDA9153TW","WHSA1219TW","pantry_check_details","2712997","UPDATE `pantry_check_details` SET `last_updated` = '2017-05-04 11:13:04', `armstrong_2_customers_id` = 'WHSA1219TW', `armstrong_2_customers_name` = '鑫豐泰' WHERE `id` = '2712997'","1","Success"
"2017-05-04 11:13:04","OPDA9153TW","WHSA1219TW","pantry_check_details","2712998","UPDATE `pantry_check_details` SET `last_updated` = '2017-05-04 11:13:04', `armstrong_2_customers_id` = 'WHSA1219TW', `armstrong_2_customers_name` = '鑫豐泰' WHERE `id` = '2712998'","1","Success"
"2017-05-04 11:13:04","OPDA9153TW","WHSA1219TW","pantry_check_details","2712999","UPDATE `pantry_check_details` SET `last_updated` = '2017-05-04 11:13:04', `armstrong_2_customers_id` = 'WHSA1219TW', `armstrong_2_customers_name` = '鑫豐泰' WHERE `id` = '2712999'","1","Success"
"2017-05-04 11:13:04","OPDA9153TW","WHSA1219TW","pantry_check_details","2713000","UPDATE `pantry_check_details` SET `last_updated` = '2017-05-04 11:13:04', `armstrong_2_customers_id` = 'WHSA1219TW', `armstrong_2_customers_name` = '鑫豐泰' WHERE `id` = '2713000'","1","Success"
"2017-05-04 11:13:04","OPDA9153TW","WHSA1219TW","pantry_check_details","2713001","UPDATE `pantry_check_details` SET `last_updated` = '2017-05-04 11:13:04', `armstrong_2_customers_id` = 'WHSA1219TW', `armstrong_2_customers_name` = '鑫豐泰' WHERE `id` = '2713001'","1","Success"
"2017-05-04 11:13:04","OPDA9153TW","WHSA1219TW","pantry_check_details","2813531","UPDATE `pantry_check_details` SET `last_updated` = '2017-05-04 11:13:04', `armstrong_2_customers_id` = 'WHSA1219TW', `armstrong_2_customers_name` = '鑫豐泰' WHERE `id` = '2813531'","1","Success"
"2017-05-04 11:13:04","OPDA9153TW","WHSA1219TW","pantry_check_details","2813532","UPDATE `pantry_check_details` SET `last_updated` = '2017-05-04 11:13:04', `armstrong_2_customers_id` = 'WHSA1219TW', `armstrong_2_customers_name` = '鑫豐泰' WHERE `id` = '2813532'","1","Success"
"2017-05-04 11:13:04","OPDA9153TW","WHSA1219TW","pantry_check_details","2813533","UPDATE `pantry_check_details` SET `last_updated` = '2017-05-04 11:13:04', `armstrong_2_customers_id` = 'WHSA1219TW', `armstrong_2_customers_name` = '鑫豐泰' WHERE `id` = '2813533'","1","Success"
"2017-05-04 11:13:04","OPDA9153TW","WHSA1219TW","pantry_check_details","2813534","UPDATE `pantry_check_details` SET `last_updated` = '2017-05-04 11:13:04', `armstrong_2_customers_id` = 'WHSA1219TW', `armstrong_2_customers_name` = '鑫豐泰' WHERE `id` = '2813534'","1","Success"
"2017-05-04 11:13:04","OPDA9153TW","WHSA1219TW","pantry_check_details","2813535","UPDATE `pantry_check_details` SET `last_updated` = '2017-05-04 11:13:04', `armstrong_2_customers_id` = 'WHSA1219TW', `armstrong_2_customers_name` = '鑫豐泰' WHERE `id` = '2813535'","1","Success"
"2017-05-04 11:13:04","OPDA9153TW","WHSA1219TW","pantry_check_details","2813536","UPDATE `pantry_check_details` SET `last_updated` = '2017-05-04 11:13:04', `armstrong_2_customers_id` = 'WHSA1219TW', `armstrong_2_customers_name` = '鑫豐泰' WHERE `id` = '2813536'","1","Success"
"2017-05-04 11:13:04","OPDA9153TW","WHSA1219TW","pantry_check_details","2813537","UPDATE `pantry_check_details` SET `last_updated` = '2017-05-04 11:13:04', `armstrong_2_customers_id` = 'WHSA1219TW', `armstrong_2_customers_name` = '鑫豐泰' WHERE `id` = '2813537'","1","Success"
"2017-05-04 11:13:04","OPDA9153TW","WHSA1219TW","pantry_check_details","2813538","UPDATE `pantry_check_details` SET `last_updated` = '2017-05-04 11:13:04', `armstrong_2_customers_id` = 'WHSA1219TW', `armstrong_2_customers_name` = '鑫豐泰' WHERE `id` = '2813538'","1","Success"
"2017-05-04 11:13:04","OPDA9153TW","WHSA1219TW","pantry_check_details","2813539","UPDATE `pantry_check_details` SET `last_updated` = '2017-05-04 11:13:04', `armstrong_2_customers_id` = 'WHSA1219TW', `armstrong_2_customers_name` = '鑫豐泰' WHERE `id` = '2813539'","1","Success"
"2017-05-04 11:13:04","OPDA9153TW","WHSA1219TW","pantry_check_details","2813540","UPDATE `pantry_check_details` SET `last_updated` = '2017-05-04 11:13:04', `armstrong_2_customers_id` = 'WHSA1219TW', `armstrong_2_customers_name` = '鑫豐泰' WHERE `id` = '2813540'","1","Success"
"2017-05-04 11:13:04","OPDA9153TW","WHSA1219TW","pantry_check_details","2813541","UPDATE `pantry_check_details` SET `last_updated` = '2017-05-04 11:13:04', `armstrong_2_customers_id` = 'WHSA1219TW', `armstrong_2_customers_name` = '鑫豐泰' WHERE `id` = '2813541'","1","Success"
"2017-05-04 11:13:04","OPDA9153TW","WHSA1219TW","pantry_check_details","2813542","UPDATE `pantry_check_details` SET `last_updated` = '2017-05-04 11:13:04', `armstrong_2_customers_id` = 'WHSA1219TW', `armstrong_2_customers_name` = '鑫豐泰' WHERE `id` = '2813542'","1","Success"
"2017-05-04 11:13:04","OPDA9153TW","WHSA1219TW","pantry_check_details","2813543","UPDATE `pantry_check_details` SET `last_updated` = '2017-05-04 11:13:04', `armstrong_2_customers_id` = 'WHSA1219TW', `armstrong_2_customers_name` = '鑫豐泰' WHERE `id` = '2813543'","1","Success"
"2017-05-04 11:13:04","OPDA9153TW","WHSA1219TW","pantry_check_details","2813544","UPDATE `pantry_check_details` SET `last_updated` = '2017-05-04 11:13:04', `armstrong_2_customers_id` = 'WHSA1219TW', `armstrong_2_customers_name` = '鑫豐泰' WHERE `id` = '2813544'","1","Success"
"2017-05-04 11:13:04","OPDA9153TW","WHSA1219TW","pantry_check_details","2813545","UPDATE `pantry_check_details` SET `last_updated` = '2017-05-04 11:13:04', `armstrong_2_customers_id` = 'WHSA1219TW', `armstrong_2_customers_name` = '鑫豐泰' WHERE `id` = '2813545'","1","Success"
"2017-05-04 11:13:04","OPDA9153TW","WHSA1219TW","pantry_check_details","2865584","UPDATE `pantry_check_details` SET `last_updated` = '2017-05-04 11:13:04', `armstrong_2_customers_id` = 'WHSA1219TW', `armstrong_2_customers_name` = '鑫豐泰' WHERE `id` = '2865584'","1","Success"
"2017-05-04 11:13:04","OPDA9153TW","WHSA1219TW","pantry_check_details","2865585","UPDATE `pantry_check_details` SET `last_updated` = '2017-05-04 11:13:04', `armstrong_2_customers_id` = 'WHSA1219TW', `armstrong_2_customers_name` = '鑫豐泰' WHERE `id` = '2865585'","1","Success"
"2017-05-04 11:13:04","OPDA9153TW","WHSA1219TW","pantry_check_details","2865586","UPDATE `pantry_check_details` SET `last_updated` = '2017-05-04 11:13:04', `armstrong_2_customers_id` = 'WHSA1219TW', `armstrong_2_customers_name` = '鑫豐泰' WHERE `id` = '2865586'","1","Success"
"2017-05-04 11:13:04","OPDA9153TW","WHSA1219TW","pantry_check_details","2865587","UPDATE `pantry_check_details` SET `last_updated` = '2017-05-04 11:13:04', `armstrong_2_customers_id` = 'WHSA1219TW', `armstrong_2_customers_name` = '鑫豐泰' WHERE `id` = '2865587'","1","Success"
"2017-05-04 11:13:04","OPDA9153TW","WHSA1219TW","pantry_check_details","2865588","UPDATE `pantry_check_details` SET `last_updated` = '2017-05-04 11:13:04', `armstrong_2_customers_id` = 'WHSA1219TW', `armstrong_2_customers_name` = '鑫豐泰' WHERE `id` = '2865588'","1","Success"
"2017-05-04 11:13:04","OPDA9153TW","WHSA1219TW","pantry_check_details","2865589","UPDATE `pantry_check_details` SET `last_updated` = '2017-05-04 11:13:04', `armstrong_2_customers_id` = 'WHSA1219TW', `armstrong_2_customers_name` = '鑫豐泰' WHERE `id` = '2865589'","1","Success"
"2017-05-04 11:13:04","OPDA9153TW","WHSA1219TW","pantry_check_details","2865590","UPDATE `pantry_check_details` SET `last_updated` = '2017-05-04 11:13:04', `armstrong_2_customers_id` = 'WHSA1219TW', `armstrong_2_customers_name` = '鑫豐泰' WHERE `id` = '2865590'","1","Success"
"2017-05-04 11:13:04","OPDA9153TW","WHSA1219TW","pantry_check_details","2865591","UPDATE `pantry_check_details` SET `last_updated` = '2017-05-04 11:13:04', `armstrong_2_customers_id` = 'WHSA1219TW', `armstrong_2_customers_name` = '鑫豐泰' WHERE `id` = '2865591'","1","Success"
"2017-05-04 11:13:04","OPDA9153TW","WHSA1219TW","pantry_check_details","2865592","UPDATE `pantry_check_details` SET `last_updated` = '2017-05-04 11:13:04', `armstrong_2_customers_id` = 'WHSA1219TW', `armstrong_2_customers_name` = '鑫豐泰' WHERE `id` = '2865592'","1","Success"
"2017-05-04 11:13:04","OPDA9153TW","WHSA1219TW","pantry_check_details","2865593","UPDATE `pantry_check_details` SET `last_updated` = '2017-05-04 11:13:04', `armstrong_2_customers_id` = 'WHSA1219TW', `armstrong_2_customers_name` = '鑫豐泰' WHERE `id` = '2865593'","1","Success"
"2017-05-04 11:13:04","OPDA9153TW","WHSA1219TW","pantry_check_details","2865594","UPDATE `pantry_check_details` SET `last_updated` = '2017-05-04 11:13:04', `armstrong_2_customers_id` = 'WHSA1219TW', `armstrong_2_customers_name` = '鑫豐泰' WHERE `id` = '2865594'","1","Success"
"2017-05-04 11:13:04","OPDA9153TW","WHSA1219TW","pantry_check_details","2865595","UPDATE `pantry_check_details` SET `last_updated` = '2017-05-04 11:13:04', `armstrong_2_customers_id` = 'WHSA1219TW', `armstrong_2_customers_name` = '鑫豐泰' WHERE `id` = '2865595'","1","Success"
"2017-05-04 11:13:04","OPDA9153TW","WHSA1219TW","pantry_check_details","2865596","UPDATE `pantry_check_details` SET `last_updated` = '2017-05-04 11:13:04', `armstrong_2_customers_id` = 'WHSA1219TW', `armstrong_2_customers_name` = '鑫豐泰' WHERE `id` = '2865596'","1","Success"
"2017-05-04 11:13:04","OPDA9153TW","WHSA1219TW","pantry_check_details","2865597","UPDATE `pantry_check_details` SET `last_updated` = '2017-05-04 11:13:04', `armstrong_2_customers_id` = 'WHSA1219TW', `armstrong_2_customers_name` = '鑫豐泰' WHERE `id` = '2865597'","1","Success"
"2017-05-04 11:13:04","OPDA9153TW","WHSA1219TW","pantry_check_details","2865598","UPDATE `pantry_check_details` SET `last_updated` = '2017-05-04 11:13:04', `armstrong_2_customers_id` = 'WHSA1219TW', `armstrong_2_customers_name` = '鑫豐泰' WHERE `id` = '2865598'","1","Success"
"2017-05-04 11:13:04","OPDA9153TW","WHSA1219TW","pantry_check_details","3142244","UPDATE `pantry_check_details` SET `last_updated` = '2017-05-04 11:13:04', `armstrong_2_customers_id` = 'WHSA1219TW', `armstrong_2_customers_name` = '鑫豐泰' WHERE `id` = '3142244'","1","Success"
"2017-05-04 11:13:04","OPDA9153TW","WHSA1219TW","pantry_check_details","3142245","UPDATE `pantry_check_details` SET `last_updated` = '2017-05-04 11:13:04', `armstrong_2_customers_id` = 'WHSA1219TW', `armstrong_2_customers_name` = '鑫豐泰' WHERE `id` = '3142245'","1","Success"
"2017-05-04 11:13:04","OPDA9153TW","WHSA1219TW","pantry_check_details","3142246","UPDATE `pantry_check_details` SET `last_updated` = '2017-05-04 11:13:04', `armstrong_2_customers_id` = 'WHSA1219TW', `armstrong_2_customers_name` = '鑫豐泰' WHERE `id` = '3142246'","1","Success"
"2017-05-04 11:13:04","OPDA9153TW","WHSA1219TW","pantry_check_details","3142247","UPDATE `pantry_check_details` SET `last_updated` = '2017-05-04 11:13:04', `armstrong_2_customers_id` = 'WHSA1219TW', `armstrong_2_customers_name` = '鑫豐泰' WHERE `id` = '3142247'","1","Success"
"2017-05-04 11:13:04","OPDA9153TW","WHSA1219TW","pantry_check_details","3142248","UPDATE `pantry_check_details` SET `last_updated` = '2017-05-04 11:13:04', `armstrong_2_customers_id` = 'WHSA1219TW', `armstrong_2_customers_name` = '鑫豐泰' WHERE `id` = '3142248'","1","Success"
"2017-05-04 11:13:04","OPDA9153TW","WHSA1219TW","pantry_check_details","3142249","UPDATE `pantry_check_details` SET `last_updated` = '2017-05-04 11:13:04', `armstrong_2_customers_id` = 'WHSA1219TW', `armstrong_2_customers_name` = '鑫豐泰' WHERE `id` = '3142249'","1","Success"
"2017-05-04 11:13:04","OPDA9153TW","WHSA1219TW","pantry_check_details","3142250","UPDATE `pantry_check_details` SET `last_updated` = '2017-05-04 11:13:04', `armstrong_2_customers_id` = 'WHSA1219TW', `armstrong_2_customers_name` = '鑫豐泰' WHERE `id` = '3142250'","1","Success"
"2017-05-04 11:13:04","OPDA9153TW","WHSA1219TW","pantry_check_details","3142251","UPDATE `pantry_check_details` SET `last_updated` = '2017-05-04 11:13:04', `armstrong_2_customers_id` = 'WHSA1219TW', `armstrong_2_customers_name` = '鑫豐泰' WHERE `id` = '3142251'","1","Success"
"2017-05-04 11:13:04","OPDA9153TW","WHSA1219TW","pantry_check_details","3142252","UPDATE `pantry_check_details` SET `last_updated` = '2017-05-04 11:13:04', `armstrong_2_customers_id` = 'WHSA1219TW', `armstrong_2_customers_name` = '鑫豐泰' WHERE `id` = '3142252'","1","Success"
"2017-05-04 11:13:04","OPDA9153TW","WHSA1219TW","pantry_check_details","3142253","UPDATE `pantry_check_details` SET `last_updated` = '2017-05-04 11:13:04', `armstrong_2_customers_id` = 'WHSA1219TW', `armstrong_2_customers_name` = '鑫豐泰' WHERE `id` = '3142253'","1","Success"
"2017-05-04 11:13:04","OPDA9153TW","WHSA1219TW","pantry_check_details","3142254","UPDATE `pantry_check_details` SET `last_updated` = '2017-05-04 11:13:04', `armstrong_2_customers_id` = 'WHSA1219TW', `armstrong_2_customers_name` = '鑫豐泰' WHERE `id` = '3142254'","1","Success"
"2017-05-04 11:13:04","OPDA9153TW","WHSA1219TW","pantry_check_details","3142255","UPDATE `pantry_check_details` SET `last_updated` = '2017-05-04 11:13:04', `armstrong_2_customers_id` = 'WHSA1219TW', `armstrong_2_customers_name` = '鑫豐泰' WHERE `id` = '3142255'","1","Success"
"2017-05-04 11:13:04","OPDA9153TW","WHSA1219TW","pantry_check_details","3142256","UPDATE `pantry_check_details` SET `last_updated` = '2017-05-04 11:13:04', `armstrong_2_customers_id` = 'WHSA1219TW', `armstrong_2_customers_name` = '鑫豐泰' WHERE `id` = '3142256'","1","Success"
"2017-05-04 11:13:04","OPDA9153TW","WHSA1219TW","pantry_check_details","3142257","UPDATE `pantry_check_details` SET `last_updated` = '2017-05-04 11:13:04', `armstrong_2_customers_id` = 'WHSA1219TW', `armstrong_2_customers_name` = '鑫豐泰' WHERE `id` = '3142257'","1","Success"
"2017-05-04 11:13:04","OPDA9153TW","WHSA1219TW","pantry_check_details","3142258","UPDATE `pantry_check_details` SET `last_updated` = '2017-05-04 11:13:04', `armstrong_2_customers_id` = 'WHSA1219TW', `armstrong_2_customers_name` = '鑫豐泰' WHERE `id` = '3142258'","1","Success"
"2017-05-04 11:13:04","OPDA9153TW","WHSA1219TW","pantry_check_details","3421542","UPDATE `pantry_check_details` SET `last_updated` = '2017-05-04 11:13:04', `armstrong_2_customers_id` = 'WHSA1219TW', `armstrong_2_customers_name` = '鑫豐泰' WHERE `id` = '3421542'","1","Success"
"2017-05-04 11:13:04","OPDA9153TW","WHSA1219TW","pantry_check_details","3421543","UPDATE `pantry_check_details` SET `last_updated` = '2017-05-04 11:13:04', `armstrong_2_customers_id` = 'WHSA1219TW', `armstrong_2_customers_name` = '鑫豐泰' WHERE `id` = '3421543'","1","Success"
"2017-05-04 11:13:04","OPDA9153TW","WHSA1219TW","pantry_check_details","3421544","UPDATE `pantry_check_details` SET `last_updated` = '2017-05-04 11:13:04', `armstrong_2_customers_id` = 'WHSA1219TW', `armstrong_2_customers_name` = '鑫豐泰' WHERE `id` = '3421544'","1","Success"
"2017-05-04 11:13:04","OPDA9153TW","WHSA1219TW","pantry_check_details","3421545","UPDATE `pantry_check_details` SET `last_updated` = '2017-05-04 11:13:04', `armstrong_2_customers_id` = 'WHSA1219TW', `armstrong_2_customers_name` = '鑫豐泰' WHERE `id` = '3421545'","1","Success"
"2017-05-04 11:13:04","OPDA9153TW","WHSA1219TW","pantry_check_details","3421546","UPDATE `pantry_check_details` SET `last_updated` = '2017-05-04 11:13:04', `armstrong_2_customers_id` = 'WHSA1219TW', `armstrong_2_customers_name` = '鑫豐泰' WHERE `id` = '3421546'","1","Success"
"2017-05-04 11:13:04","OPDA9153TW","WHSA1219TW","pantry_check_details","3421547","UPDATE `pantry_check_details` SET `last_updated` = '2017-05-04 11:13:04', `armstrong_2_customers_id` = 'WHSA1219TW', `armstrong_2_customers_name` = '鑫豐泰' WHERE `id` = '3421547'","1","Success"
"2017-05-04 11:13:04","OPDA9153TW","WHSA1219TW","pantry_check_details","3421548","UPDATE `pantry_check_details` SET `last_updated` = '2017-05-04 11:13:04', `armstrong_2_customers_id` = 'WHSA1219TW', `armstrong_2_customers_name` = '鑫豐泰' WHERE `id` = '3421548'","1","Success"
"2017-05-04 11:13:04","OPDA9153TW","WHSA1219TW","pantry_check_details","3421549","UPDATE `pantry_check_details` SET `last_updated` = '2017-05-04 11:13:04', `armstrong_2_customers_id` = 'WHSA1219TW', `armstrong_2_customers_name` = '鑫豐泰' WHERE `id` = '3421549'","1","Success"
"2017-05-04 11:13:04","OPDA9153TW","WHSA1219TW","pantry_check_details","3421550","UPDATE `pantry_check_details` SET `last_updated` = '2017-05-04 11:13:04', `armstrong_2_customers_id` = 'WHSA1219TW', `armstrong_2_customers_name` = '鑫豐泰' WHERE `id` = '3421550'","1","Success"
"2017-05-04 11:13:04","OPDA9153TW","WHSA1219TW","pantry_check_details","3421551","UPDATE `pantry_check_details` SET `last_updated` = '2017-05-04 11:13:04', `armstrong_2_customers_id` = 'WHSA1219TW', `armstrong_2_customers_name` = '鑫豐泰' WHERE `id` = '3421551'","1","Success"
"2017-05-04 11:13:04","OPDA9153TW","WHSA1219TW","pantry_check_details","3421552","UPDATE `pantry_check_details` SET `last_updated` = '2017-05-04 11:13:04', `armstrong_2_customers_id` = 'WHSA1219TW', `armstrong_2_customers_name` = '鑫豐泰' WHERE `id` = '3421552'","1","Success"
"2017-05-04 11:13:04","OPDA9153TW","WHSA1219TW","pantry_check_details","3421553","UPDATE `pantry_check_details` SET `last_updated` = '2017-05-04 11:13:04', `armstrong_2_customers_id` = 'WHSA1219TW', `armstrong_2_customers_name` = '鑫豐泰' WHERE `id` = '3421553'","1","Success"
"2017-05-04 11:13:04","OPDA9153TW","WHSA1219TW","pantry_check_details","3421554","UPDATE `pantry_check_details` SET `last_updated` = '2017-05-04 11:13:04', `armstrong_2_customers_id` = 'WHSA1219TW', `armstrong_2_customers_name` = '鑫豐泰' WHERE `id` = '3421554'","1","Success"
"2017-05-04 11:13:04","OPDA9153TW","WHSA1219TW","pantry_check_details","3421555","UPDATE `pantry_check_details` SET `last_updated` = '2017-05-04 11:13:04', `armstrong_2_customers_id` = 'WHSA1219TW', `armstrong_2_customers_name` = '鑫豐泰' WHERE `id` = '3421555'","1","Success"
"2017-05-04 11:13:04","OPDA9153TW","WHSA1219TW","pantry_check_details","3421556","UPDATE `pantry_check_details` SET `last_updated` = '2017-05-04 11:13:04', `armstrong_2_customers_id` = 'WHSA1219TW', `armstrong_2_customers_name` = '鑫豐泰' WHERE `id` = '3421556'","1","Success"
"2017-05-04 11:13:04","OPDA9153TW","WHSA1219TW","pantry_check_details","3421557","UPDATE `pantry_check_details` SET `last_updated` = '2017-05-04 11:13:04', `armstrong_2_customers_id` = 'WHSA1219TW', `armstrong_2_customers_name` = '鑫豐泰' WHERE `id` = '3421557'","1","Success"
"2017-05-04 11:13:04","OPDA9153TW","WHSA1219TW","pantry_check_details","3506903","UPDATE `pantry_check_details` SET `last_updated` = '2017-05-04 11:13:04', `armstrong_2_customers_id` = 'WHSA1219TW', `armstrong_2_customers_name` = '鑫豐泰' WHERE `id` = '3506903'","1","Success"
"2017-05-04 11:13:04","OPDA9153TW","WHSA1219TW","pantry_check_details","3506904","UPDATE `pantry_check_details` SET `last_updated` = '2017-05-04 11:13:04', `armstrong_2_customers_id` = 'WHSA1219TW', `armstrong_2_customers_name` = '鑫豐泰' WHERE `id` = '3506904'","1","Success"
"2017-05-04 11:13:04","OPDA9153TW","WHSA1219TW","pantry_check_details","3506905","UPDATE `pantry_check_details` SET `last_updated` = '2017-05-04 11:13:04', `armstrong_2_customers_id` = 'WHSA1219TW', `armstrong_2_customers_name` = '鑫豐泰' WHERE `id` = '3506905'","1","Success"
"2017-05-04 11:13:04","OPDA9153TW","WHSA1219TW","pantry_check_details","3506906","UPDATE `pantry_check_details` SET `last_updated` = '2017-05-04 11:13:04', `armstrong_2_customers_id` = 'WHSA1219TW', `armstrong_2_customers_name` = '鑫豐泰' WHERE `id` = '3506906'","1","Success"
"2017-05-04 11:13:04","OPDA9153TW","WHSA1219TW","pantry_check_details","3506907","UPDATE `pantry_check_details` SET `last_updated` = '2017-05-04 11:13:04', `armstrong_2_customers_id` = 'WHSA1219TW', `armstrong_2_customers_name` = '鑫豐泰' WHERE `id` = '3506907'","1","Success"
"2017-05-04 11:13:04","OPDA9153TW","WHSA1219TW","pantry_check_details","3506908","UPDATE `pantry_check_details` SET `last_updated` = '2017-05-04 11:13:04', `armstrong_2_customers_id` = 'WHSA1219TW', `armstrong_2_customers_name` = '鑫豐泰' WHERE `id` = '3506908'","1","Success"
"2017-05-04 11:13:04","OPDA9153TW","WHSA1219TW","pantry_check_details","3506909","UPDATE `pantry_check_details` SET `last_updated` = '2017-05-04 11:13:04', `armstrong_2_customers_id` = 'WHSA1219TW', `armstrong_2_customers_name` = '鑫豐泰' WHERE `id` = '3506909'","1","Success"
"2017-05-04 11:13:04","OPDA9153TW","WHSA1219TW","pantry_check_details","3506910","UPDATE `pantry_check_details` SET `last_updated` = '2017-05-04 11:13:04', `armstrong_2_customers_id` = 'WHSA1219TW', `armstrong_2_customers_name` = '鑫豐泰' WHERE `id` = '3506910'","1","Success"
"2017-05-04 11:13:04","OPDA9153TW","WHSA1219TW","pantry_check_details","3506911","UPDATE `pantry_check_details` SET `last_updated` = '2017-05-04 11:13:04', `armstrong_2_customers_id` = 'WHSA1219TW', `armstrong_2_customers_name` = '鑫豐泰' WHERE `id` = '3506911'","1","Success"
"2017-05-04 11:13:04","OPDA9153TW","WHSA1219TW","pantry_check_details","3506912","UPDATE `pantry_check_details` SET `last_updated` = '2017-05-04 11:13:04', `armstrong_2_customers_id` = 'WHSA1219TW', `armstrong_2_customers_name` = '鑫豐泰' WHERE `id` = '3506912'","1","Success"
"2017-05-04 11:13:04","OPDA9153TW","WHSA1219TW","pantry_check_details","3506913","UPDATE `pantry_check_details` SET `last_updated` = '2017-05-04 11:13:04', `armstrong_2_customers_id` = 'WHSA1219TW', `armstrong_2_customers_name` = '鑫豐泰' WHERE `id` = '3506913'","1","Success"
"2017-05-04 11:13:04","OPDA9153TW","WHSA1219TW","pantry_check_details","3506914","UPDATE `pantry_check_details` SET `last_updated` = '2017-05-04 11:13:04', `armstrong_2_customers_id` = 'WHSA1219TW', `armstrong_2_customers_name` = '鑫豐泰' WHERE `id` = '3506914'","1","Success"
"2017-05-04 11:13:04","OPDA9153TW","WHSA1219TW","pantry_check_details","3506915","UPDATE `pantry_check_details` SET `last_updated` = '2017-05-04 11:13:04', `armstrong_2_customers_id` = 'WHSA1219TW', `armstrong_2_customers_name` = '鑫豐泰' WHERE `id` = '3506915'","1","Success"
"2017-05-04 11:13:04","OPDA9153TW","WHSA1219TW","pantry_check_details","3506916","UPDATE `pantry_check_details` SET `last_updated` = '2017-05-04 11:13:04', `armstrong_2_customers_id` = 'WHSA1219TW', `armstrong_2_customers_name` = '鑫豐泰' WHERE `id` = '3506916'","1","Success"
"2017-05-04 11:13:04","OPDA9153TW","WHSA1219TW","pantry_check_details","3506917","UPDATE `pantry_check_details` SET `last_updated` = '2017-05-04 11:13:04', `armstrong_2_customers_id` = 'WHSA1219TW', `armstrong_2_customers_name` = '鑫豐泰' WHERE `id` = '3506917'","1","Success"
"2017-05-04 11:13:04","OPDA9153TW","WHSA1219TW","pantry_check_details","3506918","UPDATE `pantry_check_details` SET `last_updated` = '2017-05-04 11:13:04', `armstrong_2_customers_id` = 'WHSA1219TW', `armstrong_2_customers_name` = '鑫豐泰' WHERE `id` = '3506918'","1","Success"