"Date","Customer","Whosaler","Table","Id","SQL","Column effect","Status"
"2017-05-04 11:28:25","OPDA9153TW","WHSA1219TW","route_plan","ROUA00066921TW","UPDATE `route_plan` SET `last_updated` = '2017-05-04 11:28:25', `armstrong_2_customers_id` = 'WHSA1219TW' WHERE `armstrong_2_route_plan_id` = 'ROUA00066921TW'","1","Success"
"2017-05-04 11:28:25","OPDA9153TW","WHSA1219TW","route_plan","ROUA00071141TW","UPDATE `route_plan` SET `last_updated` = '2017-05-04 11:28:25', `armstrong_2_customers_id` = 'WHSA1219TW' WHERE `armstrong_2_route_plan_id` = 'ROUA00071141TW'","1","Success"
"2017-05-04 11:28:25","OPDA9153TW","WHSA1219TW","route_plan","ROUA00071631TW","UPDATE `route_plan` SET `last_updated` = '2017-05-04 11:28:25', `armstrong_2_customers_id` = 'WHSA1219TW' WHERE `armstrong_2_route_plan_id` = 'ROUA00071631TW'","1","Success"
"2017-05-04 11:28:25","OPDA9153TW","WHSA1219TW","route_plan","ROUA00076475TW","UPDATE `route_plan` SET `last_updated` = '2017-05-04 11:28:25', `armstrong_2_customers_id` = 'WHSA1219TW' WHERE `armstrong_2_route_plan_id` = 'ROUA00076475TW'","1","Success"
"2017-05-04 11:28:25","OPDA9153TW","WHSA1219TW","route_plan","ROUA00078150TW","UPDATE `route_plan` SET `last_updated` = '2017-05-04 11:28:25', `armstrong_2_customers_id` = 'WHSA1219TW' WHERE `armstrong_2_route_plan_id` = 'ROUA00078150TW'","1","Success"
"2017-05-04 11:28:25","OPDA9153TW","WHSA1219TW","route_plan","ROUA00078152TW","UPDATE `route_plan` SET `last_updated` = '2017-05-04 11:28:25', `armstrong_2_customers_id` = 'WHSA1219TW' WHERE `armstrong_2_route_plan_id` = 'ROUA00078152TW'","1","Success"
"2017-05-04 11:28:25","OPDA9153TW","WHSA1219TW","route_plan","ROUA00080999TW","UPDATE `route_plan` SET `last_updated` = '2017-05-04 11:28:25', `armstrong_2_customers_id` = 'WHSA1219TW' WHERE `armstrong_2_route_plan_id` = 'ROUA00080999TW'","1","Success"
"2017-05-04 11:28:25","OPDA9153TW","WHSA1219TW","route_plan","ROUA00083581TW","UPDATE `route_plan` SET `last_updated` = '2017-05-04 11:28:25', `armstrong_2_customers_id` = 'WHSA1219TW' WHERE `armstrong_2_route_plan_id` = 'ROUA00083581TW'","1","Success"
"2017-05-04 11:28:25","OPDA9153TW","WHSA1219TW","route_plan","ROUA00090917TW","UPDATE `route_plan` SET `last_updated` = '2017-05-04 11:28:25', `armstrong_2_customers_id` = 'WHSA1219TW' WHERE `armstrong_2_route_plan_id` = 'ROUA00090917TW'","1","Success"
"2017-05-04 11:28:25","OPDA9153TW","WHSA1219TW","route_plan","ROUA00091419TW","UPDATE `route_plan` SET `last_updated` = '2017-05-04 11:28:25', `armstrong_2_customers_id` = 'WHSA1219TW' WHERE `armstrong_2_route_plan_id` = 'ROUA00091419TW'","1","Success"
"2017-05-04 11:28:25","OPDA9153TW","WHSA1219TW","route_plan","ROUA00096433TW","UPDATE `route_plan` SET `last_updated` = '2017-05-04 11:28:25', `armstrong_2_customers_id` = 'WHSA1219TW' WHERE `armstrong_2_route_plan_id` = 'ROUA00096433TW'","1","Success"
"2017-05-04 11:28:25","OPDA9153TW","WHSA1219TW","route_plan","ROUA00099990TW","UPDATE `route_plan` SET `last_updated` = '2017-05-04 11:28:25', `armstrong_2_customers_id` = 'WHSA1219TW' WHERE `armstrong_2_route_plan_id` = 'ROUA00099990TW'","1","Success"
"2017-05-04 11:28:25","OPDA9153TW","WHSA1219TW","route_plan","ROUA00103621TW","UPDATE `route_plan` SET `last_updated` = '2017-05-04 11:28:25', `armstrong_2_customers_id` = 'WHSA1219TW' WHERE `armstrong_2_route_plan_id` = 'ROUA00103621TW'","1","Success"
"2017-05-04 11:28:25","OPDA9153TW","WHSA1219TW","route_plan","ROUA00105324TW","UPDATE `route_plan` SET `last_updated` = '2017-05-04 11:28:25', `armstrong_2_customers_id` = 'WHSA1219TW' WHERE `armstrong_2_route_plan_id` = 'ROUA00105324TW'","1","Success"