"Date","Customer","Whosaler","Table","Id","SQL","Column effect","Status"
"2017-03-27 12:55:47","OPDA9601TW","WHSA1268TW","sampling_details","270761","UPDATE `sampling_details` SET `last_updated` = '2017-03-27 12:55:47', `armstrong_2_customers_id` = 'WHSA1268TW' WHERE `id` = '270761'","1","Success"
"2017-03-27 12:55:47","OPDA9601TW","WHSA1268TW","sampling_details","283172","UPDATE `sampling_details` SET `last_updated` = '2017-03-27 12:55:47', `armstrong_2_customers_id` = 'WHSA1268TW' WHERE `id` = '283172'","1","Success"
"2017-03-27 12:55:47","OPDA9601TW","WHSA1268TW","sampling_details","297609","UPDATE `sampling_details` SET `last_updated` = '2017-03-27 12:55:47', `armstrong_2_customers_id` = 'WHSA1268TW' WHERE `id` = '297609'","1","Success"
"2017-03-27 12:55:47","OPDA9601TW","WHSA1268TW","sampling_details","298733","UPDATE `sampling_details` SET `last_updated` = '2017-03-27 12:55:47', `armstrong_2_customers_id` = 'WHSA1268TW' WHERE `id` = '298733'","1","Success"
"2017-03-27 12:55:47","OPDA9601TW","WHSA1268TW","sampling_details","316027","UPDATE `sampling_details` SET `last_updated` = '2017-03-27 12:55:47', `armstrong_2_customers_id` = 'WHSA1268TW' WHERE `id` = '316027'","1","Success"
"2017-03-27 12:55:47","OPDA9601TW","WHSA1268TW","sampling_details","319531","UPDATE `sampling_details` SET `last_updated` = '2017-03-27 12:55:47', `armstrong_2_customers_id` = 'WHSA1268TW' WHERE `id` = '319531'","1","Success"
"2017-03-27 12:55:47","OPDA9601TW","WHSA1268TW","sampling_details","323119","UPDATE `sampling_details` SET `last_updated` = '2017-03-27 12:55:47', `armstrong_2_customers_id` = 'WHSA1268TW' WHERE `id` = '323119'","1","Success"
"2017-03-27 12:55:47","OPDA9601TW","WHSA1268TW","sampling_details","332057","UPDATE `sampling_details` SET `last_updated` = '2017-03-27 12:55:47', `armstrong_2_customers_id` = 'WHSA1268TW' WHERE `id` = '332057'","1","Success"
"2017-03-27 12:55:47","OPDA9601TW","WHSA1268TW","sampling_details","341723","UPDATE `sampling_details` SET `last_updated` = '2017-03-27 12:55:47', `armstrong_2_customers_id` = 'WHSA1268TW' WHERE `id` = '341723'","1","Success"
"2017-03-27 12:55:47","OPDA9601TW","WHSA1268TW","sampling_details","361096","UPDATE `sampling_details` SET `last_updated` = '2017-03-27 12:55:47', `armstrong_2_customers_id` = 'WHSA1268TW' WHERE `id` = '361096'","1","Success"
"2017-03-27 12:55:47","OPDA9601TW","WHSA1268TW","sampling_details","369144","UPDATE `sampling_details` SET `last_updated` = '2017-03-27 12:55:47', `armstrong_2_customers_id` = 'WHSA1268TW' WHERE `id` = '369144'","1","Success"
"2017-03-27 12:55:47","OPDA9601TW","WHSA1268TW","sampling_details","373611","UPDATE `sampling_details` SET `last_updated` = '2017-03-27 12:55:47', `armstrong_2_customers_id` = 'WHSA1268TW' WHERE `id` = '373611'","1","Success"
"2017-03-27 12:55:47","OPDA9601TW","WHSA1268TW","sampling_details","382357","UPDATE `sampling_details` SET `last_updated` = '2017-03-27 12:55:47', `armstrong_2_customers_id` = 'WHSA1268TW' WHERE `id` = '382357'","1","Success"
"2017-03-27 12:55:47","OPDA9601TW","WHSA1268TW","sampling_details","386506","UPDATE `sampling_details` SET `last_updated` = '2017-03-27 12:55:47', `armstrong_2_customers_id` = 'WHSA1268TW' WHERE `id` = '386506'","1","Success"
"2017-03-27 12:55:47","OPDA9601TW","WHSA1268TW","sampling_details","389134","UPDATE `sampling_details` SET `last_updated` = '2017-03-27 12:55:47', `armstrong_2_customers_id` = 'WHSA1268TW' WHERE `id` = '389134'","1","Success"
"2017-03-27 12:55:47","OPDA9601TW","WHSA1268TW","sampling_details","405569","UPDATE `sampling_details` SET `last_updated` = '2017-03-27 12:55:47', `armstrong_2_customers_id` = 'WHSA1268TW' WHERE `id` = '405569'","1","Success"
"2017-03-27 12:55:47","OPDA9601TW","WHSA1268TW","sampling_details","418890","UPDATE `sampling_details` SET `last_updated` = '2017-03-27 12:55:47', `armstrong_2_customers_id` = 'WHSA1268TW' WHERE `id` = '418890'","1","Success"
"2017-03-27 12:55:47","OPDA9601TW","WHSA1268TW","sampling_details","433379","UPDATE `sampling_details` SET `last_updated` = '2017-03-27 12:55:47', `armstrong_2_customers_id` = 'WHSA1268TW' WHERE `id` = '433379'","1","Success"
"2017-03-27 12:55:47","OPDA9601TW","WHSA1268TW","sampling_details","447447","UPDATE `sampling_details` SET `last_updated` = '2017-03-27 12:55:47', `armstrong_2_customers_id` = 'WHSA1268TW' WHERE `id` = '447447'","1","Success"
"2017-03-27 12:55:47","OPDA9601TW","WHSA1268TW","sampling_details","456357","UPDATE `sampling_details` SET `last_updated` = '2017-03-27 12:55:47', `armstrong_2_customers_id` = 'WHSA1268TW' WHERE `id` = '456357'","1","Success"
"2017-03-27 12:55:47","OPDA9601TW","WHSA1268TW","sampling_details","461328","UPDATE `sampling_details` SET `last_updated` = '2017-03-27 12:55:47', `armstrong_2_customers_id` = 'WHSA1268TW' WHERE `id` = '461328'","1","Success"
"2017-03-27 12:55:47","OPDA9601TW","WHSA1268TW","sampling_details","477259","UPDATE `sampling_details` SET `last_updated` = '2017-03-27 12:55:47', `armstrong_2_customers_id` = 'WHSA1268TW' WHERE `id` = '477259'","1","Success"
"2017-03-27 12:55:47","OPDA7956TW","WHSA0022TW","sampling_details","","","","No Data"