"Date","Customer","Whosaler","TFO ID","PSD ID","Status"
"2017-04-28 11:59:54","OPDA9601TW","WHSA1268TW","TFOA00002687TW","PSDA00000035TW","Duplicate"
"2017-04-28 11:59:54","OPDA9601TW","WHSA1268TW","TFOA00003357TW","PSDA00000036TW","Duplicate"
"2017-04-28 11:59:54","OPDA9601TW","WHSA1268TW","TFOA00005487TW","PSDA00000037TW","Duplicate"
"2017-04-28 11:59:54","OPDA9601TW","WHSA1268TW","TFOA00009315TW","PSDA00000038TW","Duplicate"
"2017-04-28 11:59:54","OPDA9601TW","WHSA1268TW","TFOA00012581TW","PSDA00000039TW","Duplicate"
"2017-04-28 11:59:54","OPDA9601TW","WHSA1268TW","TFOA00012892TW","PSDA00000040TW","Duplicate"
"2017-04-28 11:59:54","OPDA9601TW","WHSA1268TW","TFOA00014823TW","PSDA00000041TW","Duplicate"
"2017-04-28 11:59:54","OPDA9601TW","WHSA1268TW","TFOA00017421TW","PSDA00000042TW","Duplicate"
"2017-04-28 11:59:54","OPDA9601TW","WHSA1268TW","TFOA00018145TW","PSDA00000043TW","Duplicate"
"2017-04-28 11:59:54","OPDA9601TW","WHSA1268TW","TFOA00019185TW","PSDA00000044TW","Duplicate"
"2017-04-28 11:59:54","OPDA9601TW","WHSA1268TW","TFOA00020627TW","PSDA00000045TW","Duplicate"
"2017-04-28 11:59:54","OPDA9601TW","WHSA1268TW","TFOA00021783TW","PSDA00000046TW","Duplicate"
"2017-04-28 11:59:54","OPDA9601TW","WHSA1268TW","TFOA00022458TW","PSDA00000047TW","Duplicate"
"2017-04-28 11:59:54","OPDA9601TW","WHSA1268TW","TFOA00023307TW","PSDA00000048TW","Duplicate"
"2017-04-28 11:59:54","OPDA9601TW","WHSA1268TW","TFOA00023728TW","PSDA00000049TW","Duplicate"
"2017-04-28 11:59:54","OPDA9601TW","WHSA1268TW","TFOA00025032TW","PSDA00000050TW","Duplicate"
"2017-04-28 11:59:54","OPDA9601TW","WHSA1268TW","TFOA00025936TW","PSDA00000051TW","Duplicate"
"2017-04-28 11:59:54","OPDA9601TW","WHSA1268TW","TFOA00027281TW","PSDA00000052TW","Duplicate"
"2017-04-28 11:59:54","OPDA9601TW","WHSA1268TW","TFOA00030259TW","PSDA00000053TW","Duplicate"
"2017-04-28 11:59:54","OPDA9601TW","WHSA1268TW","TFOA00031667TW","PSDA00000054TW","Duplicate"
"2017-04-28 11:59:54","OPDA9601TW","WHSA1268TW","TFOA00032614TW","PSDA00000055TW","Duplicate"
"2017-04-28 11:59:54","OPDA9601TW","WHSA1268TW","TFOA00034864TW","PSDA00000056TW","Duplicate"
"2017-04-28 11:59:54","OPDA9601TW","WHSA1268TW","TFOA00036411TW","PSDA00000057TW","Duplicate"
"2017-04-28 11:59:54","OPDA9601TW","WHSA1268TW","TFOA00039103TW","PSDA00000058TW","Duplicate"
"2017-04-28 11:59:54","OPDA9601TW","WHSA1268TW","TFOA00041264TW","PSDA00000059TW","Duplicate"
"2017-04-28 11:59:54","OPDA9601TW","WHSA1268TW","TFOA00045428TW","PSDA00000060TW","Duplicate"
"2017-04-28 11:59:54","OPDA9601TW","WHSA1268TW","TFOA00047052TW","PSDA00000061TW","Duplicate"
"2017-04-28 11:59:54","OPDA9601TW","WHSA1268TW","TFOA00049867TW","PSDA00000062TW","Duplicate"
"2017-04-28 11:59:54","OPDA9601TW","WHSA1268TW","TFOA00050599TW","PSDA00000063TW","Duplicate"
"2017-04-28 11:59:54","OPDA9601TW","WHSA1268TW","TFOA00051038TW","PSDA00000064TW","Duplicate"
"2017-04-28 11:59:54","OPDA7956TW","WHSA0022TW","TFOA00027349TW","PSDA00000065TW","Duplicate"
"2017-04-28 11:59:54","OPDA7956TW","WHSA0022TW","TFOA00042326TW","PSDA00000066TW","Duplicate"
"2017-04-28 11:59:54","OPDA7956TW","WHSA0022TW","TFOA00045182TW","PSDA00000067TW","Duplicate"