"Date","Customer","Whosaler","TFO ID","PSD ID","Status"
"2017-06-30 17:23:10","OPDA8079TW","WHSA0145TW","TFOA00003770TW","PSDB00038282TW","Updated"
"2017-06-30 17:23:10","OPDA8079TW","WHSA0145TW","TFOA00004829TW","PSDB00038283TW","Updated"
"2017-06-30 17:23:10","OPDA8079TW","WHSA0145TW","TFOA00006368TW","PSDB00038284TW","Updated"
"2017-06-30 17:23:10","OPDA8079TW","WHSA0145TW","TFOA00007641TW","PSDB00038285TW","Updated"
"2017-06-30 17:23:10","OPDA8079TW","WHSA0145TW","TFOA00009306TW","PSDB00038286TW","Updated"
"2017-06-30 17:23:10","OPDA8079TW","WHSA0145TW","TFOA00009789TW","PSDB00038287TW","Updated"
"2017-06-30 17:23:10","OPDA8079TW","WHSA0145TW","TFOA00009867TW","PSDB00038288TW","Updated"
"2017-06-30 17:23:10","OPDA8079TW","WHSA0145TW","TFOA00010082TW","PSDB00038289TW","Updated"
"2017-06-30 17:23:10","OPDA8079TW","WHSA0145TW","TFOA00012548TW","PSDB00038290TW","Updated"
"2017-06-30 17:23:10","OPDA8079TW","WHSA0145TW","TFOA00012660TW","PSDB00038291TW","Updated"
"2017-06-30 17:23:10","OPDA8079TW","WHSA0145TW","TFOA00013633TW","PSDB00038292TW","Updated"
"2017-06-30 17:23:10","OPDA8079TW","WHSA0145TW","TFOA00014012TW","PSDB00038293TW","Updated"
"2017-06-30 17:23:10","OPDA8079TW","WHSA0145TW","TFOA00014898TW","PSDB00038294TW","Updated"
"2017-06-30 17:23:10","OPDA8079TW","WHSA0145TW","TFOA00017062TW","PSDB00038295TW","Updated"
"2017-06-30 17:23:10","OPDA8079TW","WHSA0145TW","TFOA00017877TW","PSDB00038296TW","Updated"
"2017-06-30 17:23:10","OPDA8079TW","WHSA0145TW","TFOA00018443TW","PSDB00038297TW","Updated"
"2017-06-30 17:23:10","OPDA8079TW","WHSA0145TW","TFOA00019610TW","PSDB00038298TW","Updated"
"2017-06-30 17:23:10","OPDA8079TW","WHSA0145TW","TFOA00021237TW","PSDB00038299TW","Updated"
"2017-06-30 17:23:10","OPDA8079TW","WHSA0145TW","TFOA00022268TW","PSDB00038300TW","Updated"
"2017-06-30 17:23:10","OPDA8079TW","WHSA0145TW","TFOA00022331TW","PSDB00038301TW","Updated"
"2017-06-30 17:23:10","OPDA8079TW","WHSA0145TW","TFOA00022966TW","PSDB00038302TW","Updated"
"2017-06-30 17:23:10","OPDA8079TW","WHSA0145TW","TFOA00023135TW","PSDB00038303TW","Updated"
"2017-06-30 17:23:10","OPDA8079TW","WHSA0145TW","TFOA00023250TW","PSDB00038304TW","Updated"
"2017-06-30 17:23:10","OPDA8079TW","WHSA0145TW","TFOA00023536TW","PSDB00038305TW","Updated"
"2017-06-30 17:23:10","OPDA8079TW","WHSA0145TW","TFOA00024189TW","PSDB00038306TW","Updated"
"2017-06-30 17:23:10","OPDA8079TW","WHSA0145TW","TFOA00024409TW","PSDB00038307TW","Updated"
"2017-06-30 17:23:10","OPDA8079TW","WHSA0145TW","TFOA00025449TW","PSDB00038308TW","Updated"
"2017-06-30 17:23:10","OPDA8079TW","WHSA0145TW","TFOA00026209TW","PSDB00038309TW","Updated"
"2017-06-30 17:23:10","OPDA8079TW","WHSA0145TW","TFOA00029398TW","PSDB00038310TW","Updated"
"2017-06-30 17:23:10","OPDA8079TW","WHSA0145TW","TFOA00029865TW","PSDB00038311TW","Updated"
"2017-06-30 17:23:10","OPDA8079TW","WHSA0145TW","TFOA00030197TW","PSDB00038312TW","Updated"
"2017-06-30 17:23:10","OPDA8079TW","WHSA0145TW","TFOA00032351TW","PSDB00038313TW","Updated"
"2017-06-30 17:23:10","OPDA8079TW","WHSA0145TW","TFOA00038394TW","PSDB00038314TW","Updated"
"2017-06-30 17:23:10","OPDA8079TW","WHSA0145TW","TFOA00038932TW","PSDB00038315TW","Updated"
"2017-06-30 17:23:10","OPDA8079TW","WHSA0145TW","TFOA00040255TW","PSDB00038316TW","Updated"
"2017-06-30 17:23:10","OPDA8079TW","WHSA0145TW","TFOA00041403TW","PSDB00038317TW","Updated"
"2017-06-30 17:23:10","OPDA8079TW","WHSA0145TW","TFOA00042443TW","PSDB00038318TW","Updated"
"2017-06-30 17:23:10","OPDA8079TW","WHSA0145TW","TFOA00044783TW","PSDB00038319TW","Updated"
"2017-06-30 17:23:10","OPDA8079TW","WHSA0145TW","TFOA00046253TW","PSDB00038320TW","Updated"
"2017-06-30 17:23:10","OPDA8079TW","WHSA0145TW","TFOA00047614TW","PSDB00038321TW","Updated"
"2017-06-30 17:23:10","OPDA8079TW","WHSA0145TW","TFOA00048967TW","PSDB00038322TW","Updated"
"2017-06-30 17:23:10","OPDA8079TW","WHSA0145TW","TFOA00049790TW","PSDB00038323TW","Updated"
"2017-06-30 17:23:10","OPDA8079TW","WHSA0145TW","TFOA00051031TW","PSDB00038324TW","Updated"
"2017-06-30 17:23:10","OPDA8079TW","WHSA0145TW","TFOA00051415TW","PSDB00038325TW","Updated"
"2017-06-30 17:23:10","OPDA8079TW","WHSA0145TW","TFOA00051783TW","PSDB00038326TW","Updated"
"2017-06-30 17:23:10","OPDA8079TW","WHSA0145TW","TFOA00053570TW","PSDB00038327TW","Updated"
"2017-06-30 17:23:10","OPDA8079TW","WHSA0145TW","TFOA00054243TW","PSDB00038328TW","Updated"
"2017-06-30 17:23:10","OPDA8079TW","WHSA0145TW","TFOA00055411TW","PSDB00038329TW","Updated"
"2017-06-30 17:23:10","OPDA8079TW","WHSA0145TW","TFOB00330819TW","PSDB00038330TW","Updated"
"2017-06-30 17:23:10","OPDA8079TW","WHSA0145TW","TFOB00339357TW","PSDB00038331TW","Updated"
"2017-06-30 17:23:10","OPDA8079TW","WHSA0145TW","TFOB00349754TW","PSDB00038332TW","Updated"
"2017-06-30 17:23:10","OPDA8079TW","WHSA0145TW","TFOB00357452TW","PSDB00038333TW","Updated"