[{
	"Global Channels": [{
		"Other Trade Channels": [{
			"Channels": [{
				"Bakery": [{
					"Subchannels": [{
						"Bakery Shop": [{
							"Channel Group Name": [{
								"0": "B1"
							}]
						}]
					}]
				}],
				"FI": [{
					"Subchannels": [{
						"FI": [{
							"Channel Group Name": [{
								"0": "F1"
							}]
						}],
						"Bakery Factory": [{
							"Channel Group Name": [{
								"0": "F2"
							}]
						}]
					}]
				}]
			}]
		}],
		"Canteens": [{
			"Channels": [{
				"Canteens": [{
					"Subchannels": [{
						"Hospital": [{
							"Channel Group Name": [{
								"0": "CA"
							}]
						}],
						"Canteen": [{
							"Channel Group Name": [{
								"0": "CB"
							}]
						}],
						"Catering": [{
							"Channel Group Name": [{
								"0": "CC"
							}]
						}]
					}]
				}	
				]
			}]
		}],
		"Hotels": [{
			"Channels": [{
				"Hotels": [{
					"Subchannels": [{
						"5 stars": [{
							"Channel Group Name": [{
								"0": "HA"
							}]
						}],
						"3-4 stars": [{
							"Channel Group Name": [{
								"0": "HB"
							}]
						}],
						"2 stars": [{
							"Channel Group Name": [{
								"0": "HC"
							}]
						}]
					}]
				}	
				]
			}]
		}],
		"Restaurants": [{
			"Channels": [{
				"ICA": [{
					"Subchannels": [{
						"ICA": [{
							"Channel Group Name": [{
								"0": "K1"
							}]
						}]
					}]
				}],
				"LCA": [{
					"Subchannels": [{
						"LCA": [{
							"Channel Group Name": [{
								"0": "K2"
							}]
						}]
					}]
				}],
				"Restaurants": [{
					"Subchannels": [{
						"Modern Thai": [{
							"Channel Group Name": [{
								"0": "RA"
							}]
						}],
						"BBQ Buffet": [{
							"Channel Group Name": [{
								"0": "RB"
							}]
						}],
						"Chinese": [{
							"Channel Group Name": [{
								"0": "RC"
							}]
						}],
						"Western": [{
							"Channel Group Name": [{
								"0": "RD"
							}]
						}],
						"Japanese": [{
							"Channel Group Name": [{
								"0": "RE"
							}]
						}],
						"LET": [{
							"Channel Group Name": [{
								"0": "RF"
							}]
						}],
						"Others Restaurant": [{
							"Channel Group Name": [{
								"0": "RG"
							}]
						}]
					}]
				}]
			}]
		}],
		"QSR": [{
			"Channels": [{
				"ICA": [{
					"Subchannels": [{
						"QSR": [{
							"Channel Group Name": [{
								"0": "K3"
							}]
						}]
					}]
				}]
			}]
		}],
		"Cash & Carry": [{
			"Channels": [{
				"MT": [{
					"Subchannels": [{
						"MT": [{
							"Channel Group Name": [{
								"0": "M1"
							}]
						}],
						"OMT": [{
							"Channel Group Name": [{
								"0": "M2"
							}]
						}]
					}]
				}]
			}]
		}],
		"Education": [{
			"Channels": [{
				"Educations": [{
					"Subchannels": [{
						"International": [{
							"Channel Group Name": [{
								"0": "EA"
							}]
						}],
						"Private": [{
							"Channel Group Name": [{
								"0": "EB"
							}]
						}],
						"Public": [{
							"Channel Group Name": [{
								"0": "EC"
							}]
						}],
						"Kindergarten": [{
							"Channel Group Name": [{
								"0": "ED"
							}]
						}],
						"Stall": [{
							"Channel Group Name": [{
								"0": "EE"
							}]
						}]
					}]
				}]
			}]
		}],
		"Wholesalers & Resellers": [{
			"Channels": [{
				"Other": [{
					"Subchannels": [{
						"DUMMY": [{
							"Channel Group Name": [{
								"0": "DM"
							}]
						}]
					}]
				}],
				"STK": [{
					"Subchannels": [{
						"STK": [{
							"Channel Group Name": [{
								"0": "SK"
							}]
						}]
					}]
				}],
				"WF": [{
					"Subchannels": [{
						"WF": [{
							"Channel Group Name": [{
								"0": "WF"
							}]
						}],
						"WFR": [{
							"Channel Group Name": [{
								"0": "WR"
							}]
						}]
					}]
				}],
				"WB": [{
					"Subchannels": [{
						"WB": [{
							"Channel Group Name": [{
								"0": "WB"
							}]
						}]
					}]
				}],
				"WE": [{
					"Subchannels": [{
						"WE": [{
							"Channel Group Name": [{
								"0": "WE"
							}]
						}]
					}]
				}]
			}]
		}],
		"Wet & Open Market": [{
			"Channels": [{
				"WM": [{
					"Subchannels": [{
						"WM": [{
							"Channel Group Name": [{
								"0": "WM"
							}]
						}]
					}]
				}]
			}]
		}],
		"Distributors": [{
			"Channels": [{
				"DT": [{
					"Subchannels": [{
						"DT": [{
							"Channel Group Name": [{
								"0": "DT"
							}]
						}]
					}]
				}]
			}]
		}]
		
		
		
		
	}]
}]