{
    "region": {

        "Export": {

            "district": {

                "3P-Export": {
                    "suburb": ["Kowloon Bay EX", "West Point EX", "TuenMun EX", "Causeway-Bay-EX", "Kwun Tong EX", "CHINA(SHENZHEN)", "Kwai Chung EX", "Tsuen Wan EX", "China(Guongdong)", "China(Shanghai)", "Fanling EX", "Australia", "Tai Po EX", "North Point EX"]
                },

                "China Trade-KCP": {
                    "suburb": ["Central EX"]

                      },

                "Intercom Export": {
                    "suburb": ["Intercom Export"]
                     }

                }},

        "Macau": {
            "district": {
                "Macau": {
                    "suburb": ["Macau"]
                }

            }

}
        ,
        "HK": {
            "district": {
                "New Territories": {
                    "suburb": ["Airport","Ching Yi","Fan Ling","Fanling","Fo Tan","Island","Junk Bay","Kwai Chung","Kwai Chung (ATL)","Kwai Fong","Kwai Hing/Kwai Chung","Kwai Shing","Lei King","Lei Yiu","Ma On Shan","Sai Kung","Sha Tin","Sham Tseng","Shek Lei","Shek Yam","Sheung Shui","Tai Po","Tai Wai","Tseung Kwan O","Tsing Yi","Tsuen Wan","Tuen Mun","Yuen Long"]
                },

                "HK Island": {
                    "suburb": ["Aberdeen","Ap Lei Chau","Causeway Bay","Central","Chai Wan","Chek Lap Kok","Deep Water Bay","Fortess Hill","Happy Vally","Mid-Level","North Point","Peak","Pok Fu Lam","Quarry Bay","Repulse Bay","Sai Wan Ho","Shau Kei Wan","Sheung Wan","Stanley","Tai Koo Shing","Tin Hau","Wah Fu","Wan Chai","West Point","Wong Chuk Hang"]
                },

                "Kowloon": {
                    "suburb": ["Choi Hung","Diamond Hill","Ho Man Tin","Hung Hom","Jordan","Kowloon Bay","Kowloon City","Kowloon Tong","Kwun Tong","Lam Tin","Lok Fu","Mei Foo","Mong Kok","Ngau Tau Kok","Prince Edward","San Po Kong","Sham Shui Po","Shek Kip Mei","Tai Kok Tsui","To Kwa Wan","Tsim Sha Tsui","Tsim Sha Tsui (East)","Tsz Wan Shan","Wong Tai Sin","Yau Ma Tei"]
                }

            }

        }
}}