{
    "region": {
        "CENTRAL": {
            "state": {
                "Binh Dinh": {
                    "district": [
                        "Quy Nhon"
                    ]
                }, 
                "Da Nang": {
                    "district": [
                        "Da Nang"
                    ]
                }, 
                "Dak Lak": {
                    "district": [
                        "Buon Me Thuot"
                    ]
                }, 
                "Dak Nong": {
                    "district": [
                        "Dak Nong"
                    ]
                }, 
                "Gia Lai": {
                    "district": [
                        "Pleiku"
                    ]
                }, 
                "Ha Tinh": {
                    "district": [
                        "Ha Tinh"
                    ]
                }, 
                "Khanh Hoa": {
                    "district": [
                        "Nha Trang"
                    ]
                }, 
                "Kon Tum": {
                    "district": [
                        "Kon Tum"
                    ]
                }, 
                "Phu Yen": {
                    "district": [
                        "Tuy Hoa"
                    ]
                }, 
                "Quang Binh": {
                    "district": [
                        "Dong Hoi"
                    ]
                }, 
                "Quang Nam": {
                    "district": [
                        "Hoi An", 
                        "Tam Ky"
                    ]
                }, 
                "Quang Ngai": {
                    "district": [
                        "Quang Ngai"
                    ]
                }, 
                "Quang Tri": {
                    "district": [
                        "Dong Ha"
                    ]
                }, 
                "Thua Thien Hue": {
                    "district": [
                        "Hue"
                    ]
                }
            }
        }, 
        "EAST": {
            "state": {
                "Ba Ria - Vung Tau": {
                    "district": [
                        "Vung Tau", 
                        "Ba Ria"
                    ]
                }, 
                "Binh Duong": {
                    "district": [
                        "Thu Dau Mot"
                    ]
                }, 
                "Binh Phuoc": {
                    "district": [
                        "Binh Phuoc"
                    ]
                }, 
                "Binh Thuan": {
                    "district": [
                        "Phan Thiet"
                    ]
                }, 
                "Dong Nai": {
                    "district": [
                        "Bien Hoa"
                    ]
                }, 
                "Lam Dong": {
                    "district": [
                        "Da Lat", 
                        "Bao Loc"
                    ]
                }, 
                "Ninh Thuan": {
                    "district": [
                        "Phan Rang"
                    ]
                }, 
                "Tay Ninh": {
                    "district": [
                        "Tay Ninh"
                    ]
                }
            }
        }, 
        "HCM": {
            "state": {
                "TP Ho Chi Minh": {
                    "district": [
                        "Ho Chi Minh"
                    ]
                }
            }
        }, 
        "HN": {
            "state": {
                "Ha Noi": {
                    "district": [
                        "Ha Noi"
                    ]
                }
            }
        }, 
        "MEKONG": {
            "state": {
                "An Giang": {
                    "district": [
                        "Long Xuyen", 
                        "Chau Doc"
                    ]
                }, 
                "Bac Lieu": {
                    "district": [
                        "Bac Lieu"
                    ]
                }, 
                "Ben Tre": {
                    "district": [
                        "Ben Tre"
                    ]
                }, 
                "Ca Mau": {
                    "district": [
                        "Ca Mau"
                    ]
                }, 
                "Can Tho": {
                    "district": [
                        "Can Tho"
                    ]
                }, 
                "Dong Thap": {
                    "district": [
                        "Cao Lanh", 
                        "Sa Dec"
                    ]
                }, 
                "Hau Giang": {
                    "district": [
                        "Vi Thanh"
                    ]
                }, 
                "Kien Giang": {
                    "district": [
                        "Phu Quoc"
                    ]
                }, 
                "Long An": {
                    "district": [
                        "Tan An"
                    ]
                }, 
                "Soc Trang": {
                    "district": [
                        "Soc Trang"
                    ]
                }, 
                "Tien Giang": {
                    "district": [
                        "My Tho"
                    ]
                }, 
                "Tra Vinh": {
                    "district": [
                        "Tra Vinh"
                    ]
                }, 
                "Vinh Long": {
                    "district": [
                        "Vinh Long"
                    ]
                }
            }
        }, 
        "NORTH": {
            "state": {
                "Bac Giang": {
                    "district": [
                        "Bac Giang"
                    ]
                }, 
                "Bac Kan": {
                    "district": [
                        "Bac Kan"
                    ]
                }, 
                "Bac Ninh": {
                    "district": [
                        "Bac Ninh"
                    ]
                }, 
                "Cao Bang": {
                    "district": [
                        "Cao Bang"
                    ]
                }, 
                "Dien Bien": {
                    "district": [
                        "Dien Bien Phu"
                    ]
                }, 
                "Ha Giang": {
                    "district": [
                        "Ha Giang"
                    ]
                }, 
                "Ha Nam": {
                    "district": [
                        "Phu Ly"
                    ]
                }, 
                "Hai Duong": {
                    "district": [
                        "Hai Duong"
                    ]
                }, 
                "Hai Phong": {
                    "district": [
                        "Hai Phong"
                    ]
                }, 
                "Hoa Binh": {
                    "district": [
                        "Hoa Binh"
                    ]
                }, 
                "Hung Yen": {
                    "district": [
                        "Hung Yen"
                    ]
                }, 
                "Lai Chau": {
                    "district": [
                        "Lai Chau"
                    ]
                }, 
                "Lang Son": {
                    "district": [
                        "Lang Son"
                    ]
                }, 
                "Lao Cai": {
                    "district": [
                        "Lao Cai"
                    ]
                }, 
                "Nam Dinh": {
                    "district": [
                        "Nam Dinh"
                    ]
                }, 
                "Nghe An": {
                    "district": [
                        "Vinh"
                    ]
                }, 
                "Ninh Binh": {
                    "district": [
                        "Ninh Binh", 
                        "Tam Diep"
                    ]
                }, 
                "Phu Tho": {
                    "district": [
                        "Viet Tri"
                    ]
                }, 
                "Quang Ninh": {
                    "district": [
                        "Ha Long", 
                        "Cam Pha", 
                        "Uong Bi"
                    ]
                }, 
                "Son La": {
                    "district": [
                        "Son La"
                    ]
                }, 
                "Thai Binh": {
                    "district": [
                        "Thai Binh"
                    ]
                }, 
                "Thai Nguyen": {
                    "district": [
                        "Song Cong", 
                        "Thai Nguyen"
                    ]
                }, 
                "Thanh Hoa": {
                    "district": [
                        "Thanh Hoa"
                    ]
                }, 
                "Tuyen Quang": {
                    "district": [
                        "Tuyen Quang"
                    ]
                }, 
                "Vinh Phuc": {
                    "district": [
                        "Vinh Yen"
                    ]
                }, 
                "Yen Bai": {
                    "district": [
                        "Yen Bai"
                    ]
                }
            }
        }
    }
}